,0,1,label,label_pred
3430216.0,1.0,0.0,0,0
10485605.0,1.0,0.0,0,0
10023933.0,1.0,0.0,0,0
9101620.0,0.02666666666666667,0.9733333333333334,1,1
10320656.0,0.9733333333333334,0.02666666666666667,0,0
7834412.0,1.0,0.0,0,0
7123500.0,0.12666666666666668,0.8733333333333333,1,1
6035535.0,0.06666666666666667,0.9333333333333333,1,1
4364717.0,1.0,0.0,0,0
11955208.0,0.006666666666666667,0.9933333333333333,1,1
11509020.0,0.97,0.03,0,0
9019339.0,1.0,0.0,0,0
5791720.0,0.006666666666666667,0.9933333333333333,1,1
6762923.0,0.14,0.86,1,1
9837504.0,1.0,0.0,0,0
8454353.0,0.0,1.0,1,1
7741987.0,0.0033333333333333335,0.9966666666666667,1,1
3541058.0,1.0,0.0,0,0
5427445.0,0.016666666666666666,0.9833333333333333,1,1
8012943.0,0.06666666666666667,0.9333333333333333,1,1
6425783.0,0.05,0.95,1,1
5460828.0,0.0,1.0,1,1
3456560.0,1.0,0.0,0,0
9595068.0,0.9933333333333333,0.006666666666666667,0,0
9182941.0,0.01,0.99,1,1
5510843.0,0.0,1.0,1,1
6922454.0,1.0,0.0,0,0
11663581.0,1.0,0.0,0,0
7341653.0,0.0,1.0,1,1
5220528.0,0.11,0.89,1,1
10534762.0,1.0,0.0,0,0
8673358.0,0.01,0.99,1,1
6129451.0,0.06666666666666667,0.9333333333333333,1,1
7049035.0,0.023333333333333334,0.9766666666666667,1,1
12736892.0,0.0,1.0,0,1
9898181.0,0.9966666666666667,0.0033333333333333335,0,0
11707028.0,1.0,0.0,0,0
10404663.0,0.9933333333333333,0.006666666666666667,0,0
11242083.0,1.0,0.0,0,0
7363684.0,0.04,0.96,1,1
9019435.0,0.043333333333333335,0.9566666666666667,1,1
11033205.0,0.0,1.0,1,1
5446821.0,0.043333333333333335,0.9566666666666667,1,1
11760483.0,1.0,0.0,0,0
8301982.0,1.0,0.0,0,0
11087095.0,0.02,0.98,1,1
7810798.0,0.05,0.95,1,1
3627030.0,1.0,0.0,0,0
11922402.0,0.0033333333333333335,0.9966666666666667,1,1
11084203.0,1.0,0.0,0,0
9286527.0,1.0,0.0,0,0
9659131.0,1.0,0.0,0,0
3858086.0,0.006666666666666667,0.9933333333333333,1,1
6863726.0,1.0,0.0,0,0
9593467.0,1.0,0.0,0,0
6263661.0,0.09333333333333334,0.9066666666666666,1,1
10065366.0,1.0,0.0,0,0
4161376.0,0.9833333333333333,0.016666666666666666,0,0
5083330.0,0.03333333333333333,0.9666666666666667,1,1
6591850.0,1.0,0.0,0,0
5513769.0,1.0,0.0,0,0
7366644.0,0.0,1.0,1,1
7289007.0,0.9966666666666667,0.0033333333333333335,0,0
8018901.0,1.0,0.0,0,0
8451881.0,0.2633333333333333,0.7366666666666667,1,1
11395206.0,0.0,1.0,1,1
11450740.0,1.0,0.0,0,0
4819564.0,0.09666666666666666,0.9033333333333333,1,1
7500290.0,1.0,0.0,0,0
10921460.0,1.0,0.0,0,0
5962956.0,0.006666666666666667,0.9933333333333333,1,1
6447481.0,0.11333333333333333,0.8866666666666667,0,1
2283703.0,0.006666666666666667,0.9933333333333333,1,1
3974987.0,1.0,0.0,0,0
6145790.0,0.9933333333333333,0.006666666666666667,0,0
6308708.0,0.18333333333333332,0.8166666666666667,1,1
6675318.0,0.006666666666666667,0.9933333333333333,1,1
1871120.0,1.0,0.0,0,0
5535547.0,1.0,0.0,0,0
10653560.0,0.13333333333333333,0.8666666666666667,1,1
11080489.0,0.01,0.99,1,1
6863987.0,0.006666666666666667,0.9933333333333333,1,1
7175321.0,1.0,0.0,0,0
6423857.0,0.04666666666666667,0.9533333333333334,1,1
7013398.0,1.0,0.0,0,0
9992083.0,0.043333333333333335,0.9566666666666667,1,1
7509281.0,0.42333333333333334,0.5766666666666667,1,1
9933464.0,0.006666666666666667,0.9933333333333333,1,1
6960413.0,1.0,0.0,0,0
9761113.0,0.013333333333333334,0.9866666666666667,1,1
8257134.0,0.023333333333333334,0.9766666666666667,1,1
6123205.0,0.06,0.94,1,1
9836745.0,1.0,0.0,0,0
10454492.0,1.0,0.0,0,0
8443253.0,0.9966666666666667,0.0033333333333333335,0,0
11713701.0,0.05,0.95,1,1
5024254.0,1.0,0.0,0,0
4819423.0,0.0,1.0,1,1
4137187.0,1.0,0.0,0,0
11308915.0,1.0,0.0,0,0
11031746.0,0.01,0.99,1,1
3852116.0,0.01,0.99,1,1
9217369.0,0.006666666666666667,0.9933333333333333,1,1
2442866.0,0.0,1.0,1,1
4907159.0,0.0,1.0,1,1
5130466.0,0.9833333333333333,0.016666666666666666,0,0
12166457.0,0.0,1.0,1,1
12203662.0,0.07,0.93,1,1
7904285.0,1.0,0.0,0,0
4861723.0,1.0,0.0,0,0
8149616.0,0.13333333333333333,0.8666666666666667,1,1
11087527.0,0.0033333333333333335,0.9966666666666667,1,1
11017466.0,0.0,1.0,1,1
7421879.0,1.0,0.0,0,0
9897078.0,0.9966666666666667,0.0033333333333333335,0,0
10535696.0,1.0,0.0,0,0
6224062.0,0.9466666666666667,0.05333333333333334,0,0
7505644.0,0.013333333333333334,0.9866666666666667,1,1
11665620.0,0.03666666666666667,0.9633333333333334,1,1
7031565.0,0.2866666666666667,0.7133333333333334,1,1
8257779.0,0.0033333333333333335,0.9966666666666667,1,1
7538711.0,1.0,0.0,0,0
12644136.0,0.013333333333333334,0.9866666666666667,1,1
12365719.0,0.01,0.99,1,1
6306891.0,0.9933333333333333,0.006666666666666667,0,0
9456920.0,0.18666666666666668,0.8133333333333334,1,1
11147271.0,0.0033333333333333335,0.9966666666666667,1,1
5115335.0,0.013333333333333334,0.9866666666666667,1,1
10651367.0,0.9933333333333333,0.006666666666666667,0,0
8546792.0,0.01,0.99,1,1
2996903.0,0.013333333333333334,0.9866666666666667,1,1
10737192.0,1.0,0.0,0,0
3454793.0,0.013333333333333334,0.9866666666666667,1,1
6122790.0,0.016666666666666666,0.9833333333333333,1,1
5079963.0,0.9933333333333333,0.006666666666666667,0,0
10515986.0,0.0033333333333333335,0.9966666666666667,1,1
11446073.0,0.0,1.0,1,1
8916493.0,1.0,0.0,0,0
3646034.0,0.0,1.0,1,1
8378945.0,0.0,1.0,1,1
3130391.0,0.04666666666666667,0.9533333333333334,1,1
6425891.0,0.0,1.0,1,1
4645328.0,1.0,0.0,0,0
8801228.0,0.17666666666666667,0.8233333333333334,1,1
10004510.0,0.0033333333333333335,0.9966666666666667,1,1
5175503.0,0.14,0.86,1,1
8674303.0,1.0,0.0,0,0
9873255.0,1.0,0.0,0,0
5437613.0,0.9933333333333333,0.006666666666666667,0,0
9181894.0,1.0,0.0,0,0
11244150.0,0.6233333333333333,0.37666666666666665,0,0
7269729.0,1.0,0.0,0,0
7552450.0,1.0,0.0,0,0
3735720.0,0.34,0.66,1,1
12688834.0,1.0,0.0,0,0
7592990.0,0.04,0.96,1,1
9655799.0,0.0033333333333333335,0.9966666666666667,1,1
9837234.0,1.0,0.0,0,0
8226440.0,1.0,0.0,0,0
7368978.0,0.9933333333333333,0.006666666666666667,0,0
2438873.0,0.08,0.92,1,1
11462036.0,1.0,0.0,0,0
11701765.0,0.9966666666666667,0.0033333333333333335,0,0
10934828.0,1.0,0.0,0,0
7870823.0,0.14333333333333334,0.8566666666666667,1,1
11193279.0,1.0,0.0,0,0
8783787.0,1.0,0.0,0,0
