,0,1,label,label_pred
5638632.0,1.0,0.0,0,0
8571031.0,1.0,0.0,0,0
3747208.0,1.0,0.0,0,0
10132365.0,1.0,0.0,0,0
11754890.0,1.0,0.0,0,0
11393141.0,1.0,0.0,0,0
5779615.0,0.24666666666666667,0.7533333333333333,1,1
3540728.0,0.0033333333333333335,0.9966666666666667,1,1
6604994.0,1.0,0.0,0,0
6762923.0,0.03,0.97,1,1
12265462.0,0.99,0.01,0,0
8012943.0,0.03,0.97,1,1
7941056.0,1.0,0.0,0,0
6032448.0,0.03,0.97,1,1
12007544.0,0.0033333333333333335,0.9966666666666667,1,1
4169930.0,0.07333333333333333,0.9266666666666666,1,1
12599532.0,0.0033333333333333335,0.9966666666666667,1,1
11753667.0,0.0,1.0,1,1
8690639.0,1.0,0.0,0,0
9143370.0,0.9933333333333333,0.006666666666666667,0,0
5083330.0,0.0033333333333333335,0.9966666666666667,1,1
8098178.0,0.13333333333333333,0.8666666666666667,1,1
11304030.0,1.0,0.0,0,0
7033830.0,0.15666666666666668,0.8433333333333334,1,1
7377946.0,0.023333333333333334,0.9766666666666667,1,1
3626314.0,1.0,0.0,0,0
3549707.0,1.0,0.0,0,0
5460828.0,0.0,1.0,1,1
11709571.0,1.0,0.0,0,0
4737595.0,1.0,0.0,0,0
10548640.0,0.0,1.0,1,1
8226440.0,1.0,0.0,0,0
3234506.0,1.0,0.0,0,0
7426706.0,1.0,0.0,0,0
5018976.0,0.0033333333333333335,0.9966666666666667,1,1
9272356.0,1.0,0.0,0,0
4066245.0,0.0033333333333333335,0.9966666666666667,1,1
3648376.0,1.0,0.0,0,0
8776565.0,0.0,1.0,1,1
3340694.0,1.0,0.0,0,0
8017662.0,0.9966666666666667,0.0033333333333333335,0,0
9456920.0,0.016666666666666666,0.9833333333333333,1,1
8973931.0,0.0,1.0,1,1
8416220.0,0.006666666666666667,0.9933333333333333,1,1
7756377.0,1.0,0.0,0,0
4248433.0,0.14,0.86,1,1
7740414.0,1.0,0.0,0,0
10065745.0,0.15,0.85,1,1
9838763.0,0.0033333333333333335,0.9966666666666667,1,1
8681527.0,0.006666666666666667,0.9933333333333333,1,1
4067938.0,1.0,0.0,0,0
11922126.0,1.0,0.0,0,0
7185180.0,0.9666666666666667,0.03333333333333333,0,0
9474045.0,1.0,0.0,0,0
12783364.0,0.0033333333333333335,0.9966666666666667,1,1
4175707.0,0.08666666666666667,0.9133333333333333,1,1
11351469.0,1.0,0.0,0,0
7669867.0,1.0,0.0,0,0
4934374.0,1.0,0.0,0,0
6529378.0,0.19333333333333333,0.8066666666666666,1,1
5344682.0,0.16,0.84,1,1
4756798.0,0.01,0.99,1,1
11444615.0,0.006666666666666667,0.9933333333333333,1,1
9452233.0,1.0,0.0,0,0
12118993.0,0.006666666666666667,0.9933333333333333,1,1
11808745.0,1.0,0.0,0,0
7434110.0,0.01,0.99,1,1
10960823.0,0.81,0.19,0,0
10004510.0,0.0,1.0,1,1
6425891.0,0.0,1.0,1,1
4907159.0,0.04,0.96,1,1
9591765.0,0.07666666666666666,0.9233333333333333,1,1
8151508.0,0.06,0.94,1,1
8935942.0,0.09,0.91,1,1
6131366.0,1.0,0.0,0,0
4735754.0,1.0,0.0,0,0
3128488.0,0.04666666666666667,0.9533333333333334,1,1
6424526.0,1.0,0.0,0,0
5440787.0,1.0,0.0,0,0
6450067.0,0.05,0.95,1,1
7419170.0,0.99,0.01,0,0
7673433.0,1.0,0.0,0,0
9019601.0,0.06666666666666667,0.9333333333333333,1,1
11152786.0,0.0,1.0,1,1
10153478.0,1.0,0.0,0,0
8546792.0,0.016666666666666666,0.9833333333333333,1,1
8557768.0,0.9833333333333333,0.016666666666666666,0,0
7581219.0,1.0,0.0,0,0
9640217.0,0.9966666666666667,0.0033333333333333335,0,0
7938615.0,1.0,0.0,0,0
5597891.0,0.02666666666666667,0.9733333333333334,1,1
6947065.0,1.0,0.0,0,0
6021786.0,0.006666666666666667,0.9933333333333333,1,1
6502413.0,0.9433333333333334,0.056666666666666664,0,0
11395206.0,0.02666666666666667,0.9733333333333334,1,1
9405445.0,0.9966666666666667,0.0033333333333333335,0,0
11442953.0,0.9966666666666667,0.0033333333333333335,0,0
11350478.0,1.0,0.0,0,0
9119108.0,0.0033333333333333335,0.9966666666666667,1,1
9410463.0,0.9966666666666667,0.0033333333333333335,0,0
3646034.0,0.0,1.0,1,1
9289069.0,1.0,0.0,0,0
12366436.0,1.0,0.0,0,0
9217369.0,0.01,0.99,1,1
11243149.0,0.03,0.97,1,1
2710323.0,0.0033333333333333335,0.9966666666666667,1,1
10909367.0,0.023333333333333334,0.9766666666666667,1,1
7765762.0,0.78,0.22,1,0
4351676.0,1.0,0.0,0,0
11618165.0,1.0,0.0,0,0
9828350.0,0.9966666666666667,0.0033333333333333335,0,0
10847670.0,0.7366666666666667,0.2633333333333333,0,0
9896609.0,1.0,0.0,0,0
11017466.0,0.04666666666666667,0.9533333333333334,1,1
12109999.0,1.0,0.0,0,0
5510843.0,0.01,0.99,1,1
6877139.0,1.0,0.0,0,0
5124109.0,1.0,0.0,0,0
8415867.0,1.0,0.0,0,0
4249808.0,0.06,0.94,1,1
7734382.0,0.28,0.72,1,1
11080489.0,0.0033333333333333335,0.9966666666666667,1,1
10991555.0,0.013333333333333334,0.9866666666666667,1,1
8314902.0,0.0,1.0,1,1
7205150.0,1.0,0.0,0,0
9479539.0,0.013333333333333334,0.9866666666666667,1,1
8196449.0,0.05333333333333334,0.9466666666666667,1,1
4566051.0,1.0,0.0,0,0
7109265.0,1.0,0.0,0,0
1572802.0,0.023333333333333334,0.9766666666666667,1,1
10844478.0,1.0,0.0,0,0
10849336.0,1.0,0.0,0,0
7429941.0,1.0,0.0,0,0
8176468.0,0.48,0.52,1,1
5194645.0,0.08,0.92,1,1
3935803.0,0.0,1.0,1,1
9992083.0,0.1,0.9,1,1
9472016.0,0.99,0.01,0,0
8507979.0,0.0,1.0,1,1
3116289.0,1.0,0.0,0,0
4814290.0,0.016666666666666666,0.9833333333333333,1,1
8331561.0,0.08,0.92,1,1
5165604.0,1.0,0.0,0,0
9532791.0,1.0,0.0,0,0
7799526.0,0.9933333333333333,0.006666666666666667,0,0
11954184.0,0.98,0.02,0,0
6792259.0,1.0,0.0,0,0
7445605.0,0.01,0.99,1,1
6688398.0,1.0,0.0,0,0
2283703.0,0.013333333333333334,0.9866666666666667,1,1
12254110.0,0.006666666666666667,0.9933333333333333,1,1
10537283.0,1.0,0.0,0,0
9594189.0,0.10666666666666667,0.8933333333333333,1,1
5112508.0,0.09333333333333334,0.9066666666666666,1,1
12505793.0,1.0,0.0,0,0
6753253.0,0.0,1.0,1,1
12555749.0,1.0,0.0,0,0
10459864.0,0.04,0.96,1,1
11665620.0,0.04666666666666667,0.9533333333333334,1,1
4633285.0,0.03666666666666667,0.9633333333333334,1,1
1720196.0,0.9833333333333333,0.016666666666666666,0,0
7423040.0,1.0,0.0,0,0
10454962.0,0.05333333333333334,0.9466666666666667,1,1
11069343.0,1.0,0.0,0,0
3529497.0,0.01,0.99,1,1
9945771.0,0.12333333333333334,0.8766666666666667,1,1
10553017.0,0.13333333333333333,0.8666666666666667,1,1
