,0,1,label,label_pred
6388651.0,1.0,0.0,0,0
5220528.0,0.04666666666666667,0.9533333333333334,1,1
10546745.0,1.0,0.0,0,0
3732192.0,1.0,0.0,0,0
4445884.0,1.0,0.0,0,0
7957709.0,0.16666666666666666,0.8333333333333334,1,1
5682476.0,0.0,1.0,1,1
5791720.0,0.013333333333333334,0.9866666666666667,1,1
5353192.0,1.0,0.0,0,0
10585974.0,0.9966666666666667,0.0033333333333333335,0,0
5194645.0,0.03333333333333333,0.9666666666666667,1,1
1872885.0,0.0,1.0,1,1
6122790.0,0.03333333333333333,0.9666666666666667,1,1
11031746.0,0.023333333333333334,0.9766666666666667,1,1
6599612.0,1.0,0.0,0,0
9529435.0,1.0,0.0,0,0
8058211.0,0.01,0.99,1,1
6675318.0,0.0033333333333333335,0.9966666666666667,1,1
9706804.0,0.9966666666666667,0.0033333333333333335,0,0
9451299.0,0.96,0.04,0,0
7377872.0,0.9966666666666667,0.0033333333333333335,0,0
3241041.0,1.0,0.0,0,0
3534259.0,1.0,0.0,0,0
6021786.0,0.006666666666666667,0.9933333333333333,1,1
6924050.0,0.0033333333333333335,0.9966666666666667,1,1
8415004.0,0.02,0.98,1,1
2283703.0,0.043333333333333335,0.9566666666666667,1,1
2996903.0,0.01,0.99,1,1
9716286.0,0.91,0.09,0,0
2014065.0,0.9966666666666667,0.0033333333333333335,0,0
11907811.0,1.0,0.0,0,0
4483256.0,0.99,0.01,0,0
6693439.0,1.0,0.0,0,0
6429680.0,1.0,0.0,0,0
7366644.0,0.016666666666666666,0.9833333333333333,1,1
5979871.0,1.0,0.0,0,0
10224595.0,0.98,0.02,0,0
11139634.0,1.0,0.0,0,0
7868630.0,0.9933333333333333,0.006666666666666667,0,0
10320278.0,0.0,1.0,1,1
7777570.0,1.0,0.0,0,0
9410326.0,1.0,0.0,0,0
7741987.0,0.0,1.0,1,1
4175707.0,0.04,0.96,1,1
10843983.0,1.0,0.0,0,0
10553852.0,0.04,0.96,1,1
7810798.0,0.04666666666666667,0.9533333333333334,1,1
8460866.0,0.02,0.98,1,1
12644712.0,0.9833333333333333,0.016666666666666666,0,0
6753253.0,0.0,1.0,1,1
10933281.0,1.0,0.0,0,0
5264662.0,1.0,0.0,0,0
12835232.0,0.013333333333333334,0.9866666666666667,1,1
9083354.0,0.0033333333333333335,0.9966666666666667,1,1
8604575.0,0.0,1.0,1,1
9551555.0,1.0,0.0,0,0
3953970.0,0.056666666666666664,0.9433333333333334,1,1
6147712.0,0.9966666666666667,0.0033333333333333335,0,0
10611331.0,1.0,0.0,0,0
10526036.0,1.0,0.0,0,0
8110383.0,1.0,0.0,0,0
6182308.0,1.0,0.0,0,0
5597406.0,0.0033333333333333335,0.9966666666666667,1,1
11087095.0,0.0,1.0,1,1
6776613.0,1.0,0.0,0,0
5778943.0,1.0,0.0,0,0
12006812.0,1.0,0.0,0,0
9182941.0,0.0,1.0,1,1
9594576.0,1.0,0.0,0,0
10459864.0,0.0033333333333333335,0.9966666666666667,1,1
7123500.0,0.056666666666666664,0.9433333333333334,1,1
11350350.0,0.0,1.0,1,1
9570713.0,1.0,0.0,0,0
7801869.0,0.9966666666666667,0.0033333333333333335,0,0
9011963.0,0.0,1.0,1,1
6191317.0,1.0,0.0,0,0
11802657.0,1.0,0.0,0,0
4953211.0,0.013333333333333334,0.9866666666666667,1,1
11509020.0,0.9266666666666666,0.07333333333333333,0,0
10960118.0,0.9933333333333333,0.006666666666666667,0,0
5112508.0,0.05333333333333334,0.9466666666666667,1,1
11955208.0,0.0033333333333333335,0.9966666666666667,1,1
7422215.0,0.94,0.06,0,0
4066245.0,0.08333333333333333,0.9166666666666666,1,1
8098178.0,0.08333333333333333,0.9166666666666666,1,1
9279980.0,1.0,0.0,0,0
9178425.0,0.02666666666666667,0.9733333333333334,1,1
9594843.0,0.016666666666666666,0.9833333333333333,1,1
4637562.0,0.0,1.0,1,1
9761113.0,0.006666666666666667,0.9933333333333333,1,1
2436635.0,0.006666666666666667,0.9933333333333333,1,1
11549970.0,0.9966666666666667,0.0033333333333333335,0,0
7352892.0,1.0,0.0,0,0
1293993.0,0.9966666666666667,0.0033333333333333335,0,0
4862737.0,1.0,0.0,0,0
10865269.0,1.0,0.0,0,0
8973931.0,0.0,1.0,1,1
7121057.0,0.9833333333333333,0.016666666666666666,0,0
6272039.0,1.0,0.0,0,0
3765091.0,0.03333333333333333,0.9666666666666667,1,1
1871120.0,1.0,0.0,0,0
8609288.0,1.0,0.0,0,0
12644136.0,0.01,0.99,1,1
5480275.0,1.0,0.0,0,0
8681527.0,0.01,0.99,1,1
9895830.0,0.9966666666666667,0.0033333333333333335,0,0
8044516.0,0.0033333333333333335,0.9966666666666667,1,1
7036755.0,0.03666666666666667,0.9633333333333334,1,1
4633285.0,0.03333333333333333,0.9666666666666667,1,1
4825478.0,0.9933333333333333,0.006666666666666667,0,0
7533158.0,1.0,0.0,0,0
6267613.0,1.0,0.0,0,0
8680857.0,0.02,0.98,0,1
9578763.0,0.99,0.01,0,0
11408643.0,1.0,0.0,0,0
10587237.0,0.0033333333333333335,0.9966666666666667,1,1
8673358.0,0.023333333333333334,0.9766666666666667,1,1
6050154.0,1.0,0.0,0,0
9606116.0,0.06333333333333334,0.9366666666666666,1,1
7870823.0,0.17333333333333334,0.8266666666666667,1,1
7199240.0,0.47,0.53,1,1
8331561.0,0.06333333333333334,0.9366666666666666,1,1
11071041.0,0.9933333333333333,0.006666666666666667,0,0
7547969.0,0.0,1.0,1,1
3957755.0,0.006666666666666667,0.9933333333333333,1,1
3130391.0,0.03,0.97,1,1
8016310.0,1.0,0.0,0,0
6529378.0,0.01,0.99,1,1
5450651.0,1.0,0.0,0,0
9001663.0,1.0,0.0,0,0
7871162.0,0.013333333333333334,0.9866666666666667,1,1
11135115.0,0.9966666666666667,0.0033333333333333335,0,0
5201711.0,1.0,0.0,0,0
8451881.0,0.2733333333333333,0.7266666666666667,1,1
10336624.0,1.0,0.0,0,0
11017466.0,0.0,1.0,1,1
11617578.0,0.22333333333333333,0.7766666666666666,1,1
4814229.0,0.7,0.3,0,0
3659785.0,0.9933333333333333,0.006666666666666667,0,0
8149616.0,0.12,0.88,1,1
12157744.0,0.9966666666666667,0.0033333333333333335,0,0
4169930.0,0.006666666666666667,0.9933333333333333,1,1
8461279.0,0.99,0.01,0,0
11362817.0,1.0,0.0,0,0
7198925.0,0.0033333333333333335,0.9966666666666667,1,1
4819564.0,0.05333333333333334,0.9466666666666667,1,1
4636938.0,0.013333333333333334,0.9866666666666667,1,1
7103120.0,1.0,0.0,0,0
9947668.0,1.0,0.0,0,0
3322667.0,0.0033333333333333335,0.9966666666666667,1,1
8873448.0,0.0,1.0,1,1
9838763.0,0.01,0.99,1,1
10146539.0,0.27666666666666667,0.7233333333333334,0,1
7341653.0,0.0033333333333333335,0.9966666666666667,1,1
11393217.0,0.0,1.0,1,1
9101620.0,0.006666666666666667,0.9933333333333333,1,1
3758361.0,1.0,0.0,0,0
3644369.0,1.0,0.0,0,0
9715709.0,0.05,0.95,1,1
6422953.0,0.91,0.09,0,0
6129451.0,0.0,1.0,1,1
10134498.0,0.6266666666666667,0.37333333333333335,0,0
3539331.0,0.0,1.0,1,1
8196449.0,0.19333333333333333,0.8066666666666666,1,1
9410888.0,0.9966666666666667,0.0033333333333333335,0,0
6347423.0,0.006666666666666667,0.9933333333333333,1,1
9077192.0,0.02,0.98,1,1
