,0,1,label,label_pred
7448057.0,0.01,0.99,1,1
9017693.0,0.6466666666666666,0.35333333333333333,0,0
6032448.0,0.0,1.0,1,1
11091336.0,0.01,0.99,1,1
5288638.0,1.0,0.0,0,0
11922402.0,0.01,0.99,1,1
2692772.0,1.0,0.0,0,0
11305733.0,1.0,0.0,0,0
7593769.0,1.0,0.0,0,0
11551186.0,0.9966666666666667,0.0033333333333333335,0,0
4922098.0,1.0,0.0,0,0
9837572.0,1.0,0.0,0,0
7053209.0,1.0,0.0,0,0
8952983.0,1.0,0.0,0,0
6507888.0,0.006666666666666667,0.9933333333333333,1,1
11773636.0,0.9966666666666667,0.0033333333333333335,0,0
7302396.0,1.0,0.0,0,0
9701724.0,1.0,0.0,0,0
4821932.0,1.0,0.0,0,0
7458527.0,0.9966666666666667,0.0033333333333333335,0,0
6425928.0,0.02666666666666667,0.9733333333333334,1,1
7363684.0,0.006666666666666667,0.9933333333333333,1,1
10253901.0,1.0,0.0,0,0
5267789.0,1.0,0.0,0,0
8586605.0,1.0,0.0,0,0
3525786.0,1.0,0.0,0,0
6308708.0,0.23333333333333334,0.7666666666666667,1,1
8491479.0,0.08,0.92,0,1
9826728.0,1.0,0.0,0,0
4169930.0,0.03333333333333333,0.9666666666666667,1,1
3646034.0,0.0,1.0,1,1
5767580.0,0.24,0.76,0,1
4273882.0,1.0,0.0,0,0
8814775.0,0.03,0.97,1,1
9697054.0,0.96,0.04,0,0
6774679.0,0.01,0.99,1,1
8331561.0,0.08,0.92,1,1
5603484.0,1.0,0.0,0,0
10686809.0,0.87,0.13,0,0
9230137.0,0.9466666666666667,0.05333333333333334,0,0
11255787.0,1.0,0.0,0,0
8737789.0,0.0,1.0,1,1
4049025.0,0.7133333333333334,0.2866666666666667,0,0
12214450.0,1.0,0.0,0,0
10548640.0,0.0,1.0,1,1
9717551.0,0.9166666666666666,0.08333333333333333,0,0
7581614.0,1.0,0.0,0,0
8454353.0,0.0,1.0,1,1
12455251.0,1.0,0.0,0,0
4246255.0,0.03,0.97,0,1
8617502.0,0.9966666666666667,0.0033333333333333335,0,0
9390703.0,0.9966666666666667,0.0033333333333333335,0,0
10058021.0,1.0,0.0,0,0
6423857.0,0.0033333333333333335,0.9966666666666667,1,1
9216071.0,0.9966666666666667,0.0033333333333333335,0,0
4149014.0,0.9766666666666667,0.023333333333333334,0,0
7957709.0,0.06,0.94,1,1
4576367.0,1.0,0.0,0,0
3957755.0,0.0033333333333333335,0.9966666666666667,1,1
12007544.0,0.03333333333333333,0.9666666666666667,1,1
7050820.0,1.0,0.0,0,0
5607145.0,0.0,1.0,1,1
9456748.0,0.9933333333333333,0.006666666666666667,0,0
8964399.0,0.9966666666666667,0.0033333333333333335,0,0
8460866.0,0.04,0.96,1,1
6104631.0,0.0033333333333333335,0.9966666666666667,1,1
4366572.0,1.0,0.0,0,0
11190969.0,0.02666666666666667,0.9733333333333334,1,1
3659186.0,0.9133333333333333,0.08666666666666667,0,0
11124203.0,0.006666666666666667,0.9933333333333333,1,1
8278323.0,0.016666666666666666,0.9833333333333333,1,1
12207432.0,0.0,1.0,1,1
11617578.0,0.23333333333333334,0.7666666666666667,1,1
5510843.0,0.0,1.0,1,1
9453143.0,1.0,0.0,0,0
7505644.0,0.02666666666666667,0.9733333333333334,1,1
3130391.0,0.0,1.0,1,1
9973805.0,1.0,0.0,0,0
12349867.0,1.0,0.0,0,0
10988660.0,1.0,0.0,0,0
7581798.0,1.0,0.0,0,0
8841287.0,0.9966666666666667,0.0033333333333333335,0,0
3962433.0,0.0,1.0,1,1
3346479.0,0.99,0.01,0,0
3735720.0,0.31,0.69,1,1
3858086.0,0.0,1.0,1,1
4375358.0,1.0,0.0,0,0
10330135.0,0.9966666666666667,0.0033333333333333335,0,0
9205407.0,0.99,0.01,0,0
5823769.0,0.04,0.96,1,1
6528811.0,1.0,0.0,0,0
8494236.0,1.0,0.0,0,0
10776414.0,1.0,0.0,0,0
7871162.0,0.0033333333333333335,0.9966666666666667,1,1
11069343.0,1.0,0.0,0,0
4636938.0,0.02666666666666667,0.9733333333333334,1,1
3112821.0,0.9833333333333333,0.016666666666666666,0,0
3541346.0,0.0033333333333333335,0.9966666666666667,1,1
7036755.0,0.043333333333333335,0.9566666666666667,1,1
7191311.0,0.016666666666666666,0.9833333333333333,1,1
9524680.0,0.0,1.0,1,1
10710753.0,0.0,1.0,1,1
12018335.0,1.0,0.0,0,0
1027016.0,0.1,0.9,1,1
10259154.0,1.0,0.0,0,0
10800903.0,0.9866666666666667,0.013333333333333334,0,0
8776565.0,0.0,1.0,1,1
6129451.0,0.006666666666666667,0.9933333333333333,1,1
6212599.0,1.0,0.0,0,0
7299905.0,0.99,0.01,0,0
7345113.0,0.9566666666666667,0.043333333333333335,0,0
9119108.0,0.0,1.0,1,1
7659402.0,1.0,0.0,0,0
8098178.0,0.12666666666666668,0.8733333333333333,1,1
9083354.0,0.0,1.0,1,1
9715709.0,0.08,0.92,1,1
10081993.0,0.18,0.82,1,1
7123500.0,0.09666666666666666,0.9033333333333333,1,1
11087095.0,0.0,1.0,1,1
5607052.0,0.22,0.78,1,1
5083330.0,0.006666666666666667,0.9933333333333333,1,1
4165502.0,1.0,0.0,0,0
6277256.0,0.9866666666666667,0.013333333333333334,0,0
3556533.0,0.0,1.0,1,1
9873627.0,1.0,0.0,0,0
10065745.0,0.02,0.98,1,1
9306847.0,1.0,0.0,0,0
11853035.0,0.9933333333333333,0.006666666666666667,0,0
3529497.0,0.0,1.0,1,1
8263406.0,0.9933333333333333,0.006666666666666667,0,0
8411410.0,0.9933333333333333,0.006666666666666667,0,0
8257779.0,0.0033333333333333335,0.9966666666666667,1,1
9182941.0,0.0,1.0,1,1
10553017.0,0.10333333333333333,0.8966666666666666,1,1
6290811.0,0.056666666666666664,0.9433333333333334,1,1
11817493.0,0.17,0.83,1,1
6611351.0,1.0,0.0,0,0
11568704.0,1.0,0.0,0,0
8963543.0,1.0,0.0,0,0
1572802.0,0.07333333333333333,0.9266666666666666,1,1
11665620.0,0.07,0.93,1,1
10553852.0,0.043333333333333335,0.9566666666666667,1,1
8314902.0,0.0,1.0,1,1
8873448.0,0.0033333333333333335,0.9966666666666667,1,1
3935803.0,0.0,1.0,1,1
9752189.0,0.0033333333333333335,0.9966666666666667,1,1
11087452.0,0.9966666666666667,0.0033333333333333335,0,0
8212521.0,1.0,0.0,0,0
8685222.0,0.07666666666666666,0.9233333333333333,0,1
10909367.0,0.0033333333333333335,0.9966666666666667,1,1
9659187.0,1.0,0.0,0,0
8483132.0,1.0,0.0,0,0
7381180.0,0.0,1.0,1,1
5956051.0,0.01,0.99,1,1
5430181.0,0.9833333333333333,0.016666666666666666,0,0
6188126.0,0.9933333333333333,0.006666666666666667,0,0
12783364.0,0.0,1.0,1,1
6503533.0,1.0,0.0,0,0
10919641.0,1.0,0.0,0,0
2847757.0,1.0,0.0,0,0
4351414.0,0.06666666666666667,0.9333333333333333,1,1
8935942.0,0.03333333333333333,0.9666666666666667,1,1
7047979.0,1.0,0.0,0,0
10411796.0,0.0,1.0,1,1
7449695.0,0.0,1.0,1,1
5879967.0,1.0,0.0,0,0
7368999.0,0.0,1.0,1,1
