,0,1,label,label_pred
6947327.0,1.0,0.0,0,0
8197713.0,0.043333333333333335,0.9566666666666667,1,1
8310878.0,0.9966666666666667,0.0033333333333333335,0,0
5607145.0,0.0,1.0,1,1
3628002.0,1.0,0.0,0,0
11819014.0,1.0,0.0,0,0
5214286.0,0.9366666666666666,0.06333333333333334,0,0
7282078.0,1.0,0.0,0,0
3735720.0,0.5233333333333333,0.4766666666666667,1,0
4551390.0,1.0,0.0,0,0
11074746.0,0.9966666666666667,0.0033333333333333335,0,0
12552869.0,1.0,0.0,0,0
9091940.0,1.0,0.0,0,0
11755212.0,1.0,0.0,0,0
7538711.0,1.0,0.0,0,0
10119109.0,1.0,0.0,0,0
11447564.0,0.19333333333333333,0.8066666666666666,1,1
7619473.0,1.0,0.0,0,0
7191311.0,0.09,0.91,1,1
4814290.0,0.023333333333333334,0.9766666666666667,1,1
8760121.0,0.0,1.0,1,1
11753667.0,0.0,1.0,1,1
9279846.0,0.013333333333333334,0.9866666666666667,1,1
6362977.0,1.0,0.0,0,0
9992083.0,0.07666666666666666,0.9233333333333333,1,1
8617530.0,1.0,0.0,0,0
6863987.0,0.0,1.0,1,1
11127052.0,0.9933333333333333,0.006666666666666667,0,0
6020691.0,0.9933333333333333,0.006666666666666667,0,0
10865206.0,0.0,1.0,1,1
7448057.0,0.0,1.0,1,1
5823769.0,0.14,0.86,1,1
6503533.0,1.0,0.0,0,0
8476006.0,0.9966666666666667,0.0033333333333333335,0,0
5179724.0,1.0,0.0,0,0
4633285.0,0.07666666666666666,0.9233333333333333,1,1
7541650.0,1.0,0.0,0,0
7694707.0,1.0,0.0,0,0
12257338.0,0.9966666666666667,0.0033333333333333335,0,0
2436635.0,0.0,1.0,1,1
10818065.0,0.0,1.0,1,1
11563445.0,1.0,0.0,0,0
9715709.0,0.016666666666666666,0.9833333333333333,1,1
7551695.0,0.18,0.82,1,1
5962956.0,0.0,1.0,1,1
8302467.0,0.056666666666666664,0.9433333333333334,1,1
6450067.0,0.17333333333333334,0.8266666666666667,1,1
7768601.0,1.0,0.0,0,0
8481420.0,0.016666666666666666,0.9833333333333333,1,1
6753253.0,0.0,1.0,1,1
7357788.0,0.9966666666666667,0.0033333333333333335,0,0
5984358.0,1.0,0.0,0,0
5207828.0,1.0,0.0,0,0
5097379.0,0.0,1.0,1,1
10224804.0,1.0,0.0,0,0
9202899.0,1.0,0.0,0,0
10135600.0,1.0,0.0,0,0
8176468.0,0.53,0.47,1,0
8737789.0,0.0,1.0,1,1
9898476.0,1.0,0.0,0,0
5946806.0,1.0,0.0,0,0
7174642.0,0.9066666666666666,0.09333333333333334,0,0
3646034.0,0.0,1.0,1,1
11954701.0,1.0,0.0,0,0
8005800.0,1.0,0.0,0,0
5597401.0,0.0,1.0,1,1
7006918.0,1.0,0.0,0,0
5427241.0,1.0,0.0,0,0
10263691.0,0.06333333333333334,0.9366666666666666,1,1
8888592.0,1.0,0.0,0,0
11083500.0,1.0,0.0,0,0
9582382.0,1.0,0.0,0,0
2438873.0,0.09333333333333334,0.9066666666666666,1,1
9340503.0,0.0,1.0,1,1
7701615.0,1.0,0.0,0,0
6357770.0,1.0,0.0,0,0
8314902.0,0.0,1.0,1,1
2995880.0,1.0,0.0,0,0
3438817.0,1.0,0.0,0,0
4544783.0,1.0,0.0,0,0
6366770.0,0.9933333333333333,0.006666666666666667,0,0
5449665.0,0.9966666666666667,0.0033333333333333335,0,0
7898781.0,1.0,0.0,0,0
8149616.0,0.09,0.91,1,1
4756798.0,0.0,1.0,1,1
6836876.0,0.99,0.01,0,0
9933464.0,0.01,0.99,1,1
3967523.0,0.0,1.0,1,1
8192909.0,1.0,0.0,0,0
3322667.0,0.043333333333333335,0.9566666666666667,1,1
6347864.0,1.0,0.0,0,0
10710753.0,0.0,1.0,1,1
9594189.0,0.10333333333333333,0.8966666666666666,1,1
5344682.0,0.016666666666666666,0.9833333333333333,1,1
7123500.0,0.06333333333333334,0.9366666666666666,1,1
9353552.0,1.0,0.0,0,0
7592990.0,0.04666666666666667,0.9533333333333334,1,1
12644136.0,0.013333333333333334,0.9866666666666667,1,1
8124801.0,1.0,0.0,0,0
11245425.0,0.02,0.98,1,1
8044516.0,0.0,1.0,1,1
5607052.0,0.12,0.88,1,1
9524680.0,0.0,1.0,1,1
6313490.0,0.0,1.0,1,1
7668658.0,0.0033333333333333335,0.9966666666666667,1,1
9787125.0,0.9966666666666667,0.0033333333333333335,0,0
1872885.0,0.0,1.0,1,1
10320278.0,0.0,1.0,1,1
8522745.0,1.0,0.0,0,0
2283703.0,0.006666666666666667,0.9933333333333333,1,1
5962532.0,0.016666666666666666,0.9833333333333333,0,1
9137531.0,1.0,0.0,0,0
6425891.0,0.0,1.0,1,1
4390744.0,0.07333333333333333,0.9266666666666666,1,1
12506997.0,0.9966666666666667,0.0033333333333333335,0,0
9776446.0,1.0,0.0,0,0
3112828.0,0.88,0.12,0,0
8801228.0,0.12333333333333334,0.8766666666666667,1,1
10199556.0,1.0,0.0,0,0
11299675.0,0.0,1.0,1,1
6502018.0,1.0,0.0,0,0
5630676.0,1.0,0.0,0,0
10789552.0,1.0,0.0,0,0
6668936.0,1.0,0.0,0,0
7037362.0,0.9966666666666667,0.0033333333333333335,0,0
5898374.0,1.0,0.0,0,0
8673358.0,0.0,1.0,1,1
5530713.0,1.0,0.0,0,0
7133235.0,0.9866666666666667,0.013333333333333334,0,0
12115586.0,1.0,0.0,0,0
8494510.0,0.0033333333333333335,0.9966666666666667,1,1
9289587.0,0.9933333333333333,0.006666666666666667,0,0
12254110.0,0.006666666666666667,0.9933333333333333,1,1
1724234.0,0.9633333333333334,0.03666666666666667,0,0
4819564.0,0.07333333333333333,0.9266666666666666,1,1
7363684.0,0.006666666666666667,0.9933333333333333,1,1
6692460.0,0.9966666666666667,0.0033333333333333335,0,0
3938944.0,1.0,0.0,0,0
7742097.0,0.0,1.0,1,1
6032666.0,1.0,0.0,0,0
9662061.0,1.0,0.0,0,0
5649723.0,1.0,0.0,0,0
12007544.0,0.0033333333333333335,0.9966666666666667,1,1
9779106.0,1.0,0.0,0,0
5613039.0,1.0,0.0,0,0
7871162.0,0.0,1.0,1,1
5652411.0,0.9933333333333333,0.006666666666666667,0,0
8416220.0,0.0,1.0,1,1
10065745.0,0.013333333333333334,0.9866666666666667,1,1
4472096.0,1.0,0.0,0,0
10062987.0,0.0033333333333333335,0.9966666666666667,1,1
9468966.0,0.0,1.0,1,1
9396164.0,1.0,0.0,0,0
3443467.0,1.0,0.0,0,0
7800087.0,0.04,0.96,1,1
6021786.0,0.0,1.0,1,1
4660255.0,0.0,1.0,1,1
7259125.0,1.0,0.0,0,0
7778347.0,1.0,0.0,0,0
10360179.0,1.0,0.0,0,0
7377946.0,0.01,0.99,1,1
6290811.0,0.06333333333333334,0.9366666666666666,1,1
7765762.0,0.76,0.24,1,0
9655882.0,1.0,0.0,0,0
7025945.0,1.0,0.0,0,0
3336334.0,1.0,0.0,0,0
7741987.0,0.0,1.0,1,1
