,0,1,label,label_pred
9752189.0,0.01,0.99,1,1
4920290.0,1.0,0.0,0,0
12071053.0,0.016666666666666666,0.9833333333333333,1,1
5779615.0,0.42,0.58,1,1
10004510.0,0.013333333333333334,0.9866666666666667,1,1
6313490.0,0.016666666666666666,0.9833333333333333,1,1
3628867.0,1.0,0.0,0,0
5168524.0,1.0,0.0,0,0
3428093.0,1.0,0.0,0,0
5597401.0,0.03,0.97,1,1
5126225.0,1.0,0.0,0,0
10535424.0,0.03666666666666667,0.9633333333333334,1,1
4903891.0,1.0,0.0,0,0
6753253.0,0.01,0.99,1,1
11873424.0,0.99,0.01,0,0
10665178.0,0.0033333333333333335,0.9966666666666667,1,1
9267673.0,0.9966666666666667,0.0033333333333333335,0,0
11550689.0,1.0,0.0,0,0
11393217.0,0.013333333333333334,0.9866666666666667,1,1
10844433.0,1.0,0.0,0,0
6801692.0,0.9966666666666667,0.0033333333333333335,0,0
5802784.0,0.05,0.95,1,1
3735720.0,0.21666666666666667,0.7833333333333333,1,1
9594843.0,0.03333333333333333,0.9666666666666667,1,1
11758356.0,0.08333333333333333,0.9166666666666666,1,1
6115511.0,1.0,0.0,0,0
10515986.0,0.04,0.96,1,1
8482565.0,0.04666666666666667,0.9533333333333334,1,1
8331561.0,0.05333333333333334,0.9466666666666667,1,1
10596744.0,0.9966666666666667,0.0033333333333333335,0,0
10263691.0,0.04666666666666667,0.9533333333333334,1,1
2855572.0,1.0,0.0,0,0
9217369.0,0.016666666666666666,0.9833333333333333,1,1
11133900.0,0.02666666666666667,0.9733333333333334,1,1
9777480.0,1.0,0.0,0,0
2835051.0,1.0,0.0,0,0
5112508.0,0.14,0.86,1,1
11017466.0,0.0,1.0,1,1
4774574.0,0.03333333333333333,0.9666666666666667,1,1
7448057.0,0.023333333333333334,0.9766666666666667,1,1
8673358.0,0.06666666666666667,0.9333333333333333,1,1
8973931.0,0.006666666666666667,0.9933333333333333,1,1
5779070.0,1.0,0.0,0,0
7628679.0,1.0,0.0,0,0
5446821.0,0.013333333333333334,0.9866666666666667,1,1
7834663.0,1.0,0.0,0,0
3130391.0,0.02,0.98,1,1
7337334.0,1.0,0.0,0,0
3646034.0,0.01,0.99,1,1
8546792.0,0.08,0.92,1,1
8959189.0,1.0,0.0,0,0
9992083.0,0.03333333333333333,0.9666666666666667,1,1
11091336.0,0.07666666666666666,0.9233333333333333,1,1
8454353.0,0.006666666666666667,0.9933333333333333,1,1
4633285.0,0.08666666666666667,0.9133333333333333,1,1
7549594.0,1.0,0.0,0,0
7906885.0,1.0,0.0,0,0
5194645.0,0.2833333333333333,0.7166666666666667,1,1
8838877.0,0.98,0.02,0,0
11521137.0,0.17333333333333334,0.8266666666666667,1,1
10355941.0,1.0,0.0,0,0
8949663.0,0.9766666666666667,0.023333333333333334,0,0
7259443.0,1.0,0.0,0,0
7871438.0,0.01,0.99,1,1
5955846.0,1.0,0.0,0,0
8460866.0,0.11666666666666667,0.8833333333333333,1,1
8349498.0,1.0,0.0,0,0
8628550.0,0.9966666666666667,0.0033333333333333335,0,0
5823769.0,0.22,0.78,1,1
12834073.0,1.0,0.0,0,0
8379434.0,1.0,0.0,0,0
6774679.0,0.07333333333333333,0.9266666666666666,1,1
8883172.0,0.9966666666666667,0.0033333333333333335,0,0
5207289.0,0.9966666666666667,0.0033333333333333335,0,0
12833756.0,1.0,0.0,0,0
7671030.0,1.0,0.0,0,0
7505644.0,0.14666666666666667,0.8533333333333334,1,1
9898046.0,1.0,0.0,0,0
7123500.0,0.12333333333333334,0.8766666666666667,1,1
6634472.0,1.0,0.0,0,0
3120913.0,1.0,0.0,0,0
7764601.0,1.0,0.0,0,0
10850848.0,1.0,0.0,0,0
8366742.0,1.0,0.0,0,0
12215240.0,0.99,0.01,0,0
8935140.0,0.0033333333333333335,0.9966666666666667,1,1
10972459.0,1.0,0.0,0,0
9589006.0,1.0,0.0,0,0
2436635.0,0.006666666666666667,0.9933333333333333,1,1
5344682.0,0.2966666666666667,0.7033333333333334,1,1
3640967.0,1.0,0.0,0,0
4756798.0,0.02666666666666667,0.9733333333333334,1,1
8737789.0,0.01,0.99,1,1
11124203.0,0.03666666666666667,0.9633333333333334,1,1
7363684.0,0.07,0.93,1,1
6104631.0,0.03,0.97,1,1
6421769.0,1.0,0.0,0,0
5198508.0,1.0,0.0,0,0
6606167.0,0.006666666666666667,0.9933333333333333,1,1
5510843.0,0.0,1.0,1,1
10323663.0,1.0,0.0,0,0
11152786.0,0.013333333333333334,0.9866666666666667,1,1
9592812.0,0.9933333333333333,0.006666666666666667,0,0
7449695.0,0.08666666666666667,0.9133333333333333,1,1
7039612.0,1.0,0.0,0,0
7871162.0,0.06666666666666667,0.9333333333333333,1,1
11145556.0,0.9966666666666667,0.0033333333333333335,0,0
8314902.0,0.0033333333333333335,0.9966666666666667,1,1
8197713.0,0.07666666666666666,0.9233333333333333,1,1
11442953.0,1.0,0.0,0,0
7523705.0,0.9966666666666667,0.0033333333333333335,0,0
8415004.0,0.01,0.99,1,1
6372674.0,1.0,0.0,0,0
8880109.0,1.0,0.0,0,0
8814775.0,0.02666666666666667,0.9733333333333334,1,1
11031746.0,0.043333333333333335,0.9566666666666667,1,1
9941508.0,1.0,0.0,0,0
6757959.0,1.0,0.0,0,0
8251007.0,1.0,0.0,0,0
8257779.0,0.08,0.92,1,1
8278279.0,0.9533333333333334,0.04666666666666667,0,0
7877270.0,1.0,0.0,0,0
9713986.0,0.02666666666666667,0.9733333333333334,1,1
9715709.0,0.12,0.88,1,1
6425891.0,0.0033333333333333335,0.9966666666666667,1,1
11753667.0,0.03333333333333333,0.9666666666666667,1,1
3935803.0,0.0,1.0,1,1
9533567.0,0.9866666666666667,0.013333333333333334,0,0
5460828.0,0.0,1.0,1,1
11196403.0,0.15,0.85,0,1
4935181.0,0.12666666666666668,0.8733333333333333,1,1
4651273.0,1.0,0.0,0,0
11922402.0,0.023333333333333334,0.9766666666666667,1,1
5956051.0,0.023333333333333334,0.9766666666666667,1,1
4907159.0,0.01,0.99,1,1
12207432.0,0.006666666666666667,0.9933333333333333,1,1
2283703.0,0.04,0.96,1,1
4271063.0,0.05,0.95,1,1
10394332.0,0.006666666666666667,0.9933333333333333,1,1
7174694.0,1.0,0.0,0,0
11298679.0,1.0,0.0,0,0
1874294.0,1.0,0.0,0,0
5436702.0,1.0,0.0,0,0
6768217.0,1.0,0.0,0,0
10017047.0,1.0,0.0,0,0
11617578.0,0.31666666666666665,0.6833333333333333,1,1
9892651.0,0.02666666666666667,0.9733333333333334,1,1
10002792.0,0.07666666666666666,0.9233333333333333,1,1
10790812.0,0.0,1.0,1,1
11670965.0,1.0,0.0,0,0
10459864.0,0.0033333333333333335,0.9966666666666667,1,1
9340503.0,0.016666666666666666,0.9833333333333333,1,1
11245425.0,0.06,0.94,1,1
6705292.0,1.0,0.0,0,0
11667701.0,0.9966666666666667,0.0033333333333333335,0,0
4348431.0,1.0,0.0,0,0
2577210.0,0.9966666666666667,0.0033333333333333335,0,0
7551695.0,0.3333333333333333,0.6666666666666666,1,1
9947052.0,1.0,0.0,0,0
12153006.0,1.0,0.0,0,0
11087095.0,0.0,1.0,1,1
6117832.0,0.01,0.99,1,1
8801228.0,0.07333333333333333,0.9266666666666666,1,1
10529541.0,1.0,0.0,0,0
5611481.0,0.9966666666666667,0.0033333333333333335,0,0
12599532.0,0.06666666666666667,0.9333333333333333,1,1
5265188.0,1.0,0.0,0,0
