,0,1,label,label_pred
10065745.0,0.006666666666666667,0.9933333333333333,1,1
5967315.0,1.0,0.0,0,0
7107430.0,0.4033333333333333,0.5966666666666667,0,1
11769994.0,0.9866666666666667,0.013333333333333334,0,0
9594843.0,0.01,0.99,1,1
11558509.0,0.9966666666666667,0.0033333333333333335,0,0
2442866.0,0.0,1.0,1,1
10229227.0,1.0,0.0,0,0
10858071.0,1.0,0.0,0,0
9606758.0,1.0,0.0,0,0
7123500.0,0.03666666666666667,0.9633333333333334,1,1
9468966.0,0.0,1.0,1,1
10964309.0,1.0,0.0,0,0
10816687.0,0.9933333333333333,0.006666666666666667,0,0
6104631.0,0.006666666666666667,0.9933333333333333,1,1
7466603.0,0.99,0.01,0,0
5018976.0,0.0,1.0,1,1
4648747.0,1.0,0.0,0,0
4633285.0,0.05333333333333334,0.9466666666666667,1,1
12102905.0,0.0,1.0,1,1
6268411.0,0.9966666666666667,0.0033333333333333335,0,0
8610359.0,1.0,0.0,0,0
4066245.0,0.0,1.0,1,1
4390744.0,0.04,0.96,1,1
5702483.0,0.9666666666666667,0.03333333333333333,0,0
9992083.0,0.06333333333333334,0.9366666666666666,1,1
4739906.0,0.9966666666666667,0.0033333333333333335,0,0
7049035.0,0.02,0.98,1,1
4953358.0,0.0033333333333333335,0.9966666666666667,1,1
8059595.0,1.0,0.0,0,0
11707911.0,0.9966666666666667,0.0033333333333333335,0,0
10553852.0,0.01,0.99,1,1
10023642.0,1.0,0.0,0,0
7348906.0,1.0,0.0,0,0
4149896.0,0.9933333333333333,0.006666666666666667,0,0
6516820.0,1.0,0.0,0,0
10865206.0,0.0,1.0,1,1
11033205.0,0.0,1.0,1,1
12354616.0,1.0,0.0,0,0
11494280.0,1.0,0.0,0,0
6762923.0,0.0,1.0,1,1
8973931.0,0.0,1.0,1,1
7445605.0,0.04,0.96,1,1
11446073.0,0.0033333333333333335,0.9966666666666667,1,1
5820068.0,1.0,0.0,0,0
9994229.0,0.04666666666666667,0.9533333333333334,0,1
6306562.0,0.9933333333333333,0.006666666666666667,0,0
8046850.0,1.0,0.0,0,0
7955887.0,0.75,0.25,0,0
8604575.0,0.0,1.0,1,1
3130391.0,0.0,1.0,1,1
8716714.0,1.0,0.0,0,0
2438873.0,0.04,0.96,1,1
8719129.0,1.0,0.0,0,0
8817358.0,0.006666666666666667,0.9933333333333333,0,1
7734775.0,1.0,0.0,0,0
8359332.0,1.0,0.0,0,0
7377946.0,0.013333333333333334,0.9866666666666667,1,1
8546052.0,1.0,0.0,0,0
6343818.0,0.09666666666666666,0.9033333333333333,1,1
8197713.0,0.0,1.0,1,1
5083330.0,0.016666666666666666,0.9833333333333333,1,1
11812189.0,1.0,0.0,0,0
5106934.0,1.0,0.0,0,0
3529497.0,0.0,1.0,1,1
5344682.0,0.03,0.97,1,1
5607052.0,0.07666666666666666,0.9233333333333333,1,1
4345276.0,1.0,0.0,0,0
10866943.0,1.0,0.0,0,0
10062987.0,0.0,1.0,1,1
7958890.0,0.11,0.89,1,1
11033644.0,1.0,0.0,0,0
10387256.0,1.0,0.0,0,0
3442825.0,1.0,0.0,0,0
7104517.0,1.0,0.0,0,0
11775950.0,1.0,0.0,0,0
5002294.0,1.0,0.0,0,0
3442269.0,0.9866666666666667,0.013333333333333334,0,0
11444615.0,0.0,1.0,1,1
11152786.0,0.0,1.0,1,1
9715007.0,0.9933333333333333,0.006666666666666667,0,0
4641097.0,1.0,0.0,0,0
4660038.0,0.03333333333333333,0.9666666666666667,1,1
10396063.0,1.0,0.0,0,0
5042629.0,1.0,0.0,0,0
6117832.0,0.0033333333333333335,0.9966666666666667,1,1
11817657.0,1.0,0.0,0,0
6519732.0,1.0,0.0,0,0
4991083.0,1.0,0.0,0,0
6423857.0,0.006666666666666667,0.9933333333333333,1,1
9933464.0,0.0033333333333333335,0.9966666666666667,1,1
5791720.0,0.0,1.0,1,1
8044516.0,0.0033333333333333335,0.9966666666666667,1,1
11602340.0,1.0,0.0,0,0
1160947.0,1.0,0.0,0,0
7871438.0,0.0,1.0,1,1
10963771.0,1.0,0.0,0,0
3860071.0,1.0,0.0,0,0
9712941.0,0.9966666666666667,0.0033333333333333335,0,0
9150219.0,1.0,0.0,0,0
4351414.0,0.11,0.89,1,1
8507979.0,0.0,1.0,1,1
7742097.0,0.0,1.0,1,1
12118836.0,1.0,0.0,0,0
10790812.0,0.0,1.0,1,1
3858086.0,0.0,1.0,1,1
9175009.0,1.0,0.0,0,0
7509281.0,0.06333333333333334,0.9366666666666666,1,1
11242595.0,1.0,0.0,0,0
6450067.0,0.02666666666666667,0.9733333333333334,1,1
6032448.0,0.0,1.0,1,1
6761374.0,1.0,0.0,0,0
11409732.0,1.0,0.0,0,0
6431800.0,1.0,0.0,0,0
5956587.0,1.0,0.0,0,0
3957755.0,0.006666666666666667,0.9933333333333333,1,1
2996903.0,0.0033333333333333335,0.9966666666666667,1,1
10454962.0,0.04,0.96,1,1
6584163.0,1.0,0.0,0,0
10081993.0,0.10333333333333333,0.8966666666666666,1,1
8077356.0,0.9966666666666667,0.0033333333333333335,0,0
4636938.0,0.016666666666666666,0.9833333333333333,1,1
4671579.0,1.0,0.0,0,0
10682589.0,0.9966666666666667,0.0033333333333333335,0,0
6423563.0,1.0,0.0,0,0
4365655.0,1.0,0.0,0,0
7104891.0,1.0,0.0,0,0
9713986.0,0.0,1.0,1,1
8151508.0,0.11,0.89,1,1
2436635.0,0.0033333333333333335,0.9966666666666667,1,1
5860763.0,1.0,0.0,0,0
8179117.0,1.0,0.0,0,0
8760121.0,0.0,1.0,1,1
11443530.0,1.0,0.0,0,0
2710323.0,0.0,1.0,1,1
6425928.0,0.01,0.99,1,1
3941415.0,1.0,0.0,0,0
8164449.0,1.0,0.0,0,0
7701765.0,1.0,0.0,0,0
11665620.0,0.03333333333333333,0.9666666666666667,1,1
10966326.0,1.0,0.0,0,0
5614003.0,0.04666666666666667,0.9533333333333334,0,1
4852019.0,0.08,0.92,0,1
8745800.0,0.9966666666666667,0.0033333333333333335,0,0
7832336.0,1.0,0.0,0,0
11124203.0,0.016666666666666666,0.9833333333333333,1,1
11133900.0,0.0033333333333333335,0.9966666666666667,1,1
9752189.0,0.0033333333333333335,0.9966666666666667,1,1
3426250.0,0.9933333333333333,0.006666666666666667,0,0
6468867.0,1.0,0.0,0,0
4244458.0,0.9966666666666667,0.0033333333333333335,0,0
9838763.0,0.0,1.0,1,1
10263691.0,0.013333333333333334,0.9866666666666667,1,1
3540728.0,0.0,1.0,1,1
8776565.0,0.0,1.0,1,1
10484670.0,1.0,0.0,0,0
3956991.0,1.0,0.0,0,0
9606116.0,0.0033333333333333335,0.9966666666666667,1,1
9228927.0,0.12,0.88,0,1
5823769.0,0.02,0.98,1,1
11808347.0,1.0,0.0,0,0
6964206.0,1.0,0.0,0,0
10847937.0,1.0,0.0,0,0
10665178.0,0.0,1.0,1,1
9655799.0,0.0,1.0,1,1
5460828.0,0.0,1.0,1,1
12071053.0,0.0,1.0,1,1
