,0,1,label,label_pred
9389043.0,1.0,0.0,0,0
8278323.0,0.0033333333333333335,0.9966666666666667,1,1
7377946.0,0.0033333333333333335,0.9966666666666667,1,1
6605178.0,1.0,0.0,0,0
12060547.0,1.0,0.0,0,0
2710323.0,0.0,1.0,1,1
8314902.0,0.0,1.0,1,1
7867109.0,1.0,0.0,0,0
7203341.0,1.0,0.0,0,0
6529378.0,0.11,0.89,1,1
9070772.0,1.0,0.0,0,0
8058211.0,0.0,1.0,1,1
8801228.0,0.12666666666666668,0.8733333333333333,1,1
10263944.0,1.0,0.0,0,0
11245425.0,0.01,0.99,1,1
9775684.0,0.89,0.11,0,0
7341528.0,0.9966666666666667,0.0033333333333333335,0,0
7592990.0,0.023333333333333334,0.9766666666666667,1,1
7581770.0,0.9966666666666667,0.0033333333333333335,0,0
8803643.0,0.006666666666666667,0.9933333333333333,1,1
11242926.0,0.9933333333333333,0.006666666666666667,0,0
11960670.0,1.0,0.0,0,0
10207776.0,0.99,0.01,0,0
9753647.0,1.0,0.0,0,0
11045074.0,1.0,0.0,0,0
9752189.0,0.0,1.0,1,1
11393217.0,0.0,1.0,1,1
12118993.0,0.0,1.0,1,1
6871390.0,0.0,1.0,1,1
11087095.0,0.0,1.0,1,1
12315319.0,1.0,0.0,0,0
8378945.0,0.0,1.0,1,1
9755118.0,1.0,0.0,0,0
12203662.0,0.20666666666666667,0.7933333333333333,1,1
7870823.0,0.05333333333333334,0.9466666666666667,1,1
9823298.0,0.9966666666666667,0.0033333333333333335,0,0
7815884.0,1.0,0.0,0,0
10653560.0,0.01,0.99,1,1
7190459.0,0.8466666666666667,0.15333333333333332,0,0
9283820.0,1.0,0.0,0,0
1721911.0,1.0,0.0,0,0
5607145.0,0.0,1.0,1,1
6940035.0,1.0,0.0,0,0
10120920.0,1.0,0.0,0,0
4953358.0,0.006666666666666667,0.9933333333333333,1,1
6306440.0,0.99,0.01,0,0
3540728.0,0.0033333333333333335,0.9966666666666667,1,1
9303842.0,0.99,0.01,0,0
6425928.0,0.0,1.0,1,1
11075119.0,1.0,0.0,0,0
9468966.0,0.0,1.0,1,1
11663055.0,1.0,0.0,0,0
5018976.0,0.006666666666666667,0.9933333333333333,1,1
4568467.0,1.0,0.0,0,0
5823769.0,0.02666666666666667,0.9733333333333334,1,1
7368999.0,0.0,1.0,1,1
8219476.0,0.25333333333333335,0.7466666666666667,1,1
8506486.0,1.0,0.0,0,0
11624533.0,1.0,0.0,0,0
7959828.0,1.0,0.0,0,0
9655799.0,0.0,1.0,1,1
8673358.0,0.0,1.0,1,1
10515986.0,0.0,1.0,1,1
4636938.0,0.03666666666666667,0.9633333333333334,1,1
4390744.0,0.03,0.97,1,1
6421769.0,1.0,0.0,0,0
11853035.0,0.9933333333333333,0.006666666666666667,0,0
6850818.0,1.0,0.0,0,0
7287728.0,1.0,0.0,0,0
6763400.0,1.0,0.0,0,0
7381455.0,0.9966666666666667,0.0033333333333333335,0,0
7198925.0,0.016666666666666666,0.9833333333333333,1,1
8035856.0,1.0,0.0,0,0
5469748.0,1.0,0.0,0,0
9508099.0,0.0,1.0,1,1
4271063.0,0.0,1.0,1,1
3729847.0,1.0,0.0,0,0
3953916.0,1.0,0.0,0,0
10918016.0,0.0,1.0,1,1
5083330.0,0.01,0.99,1,1
7421353.0,0.9966666666666667,0.0033333333333333335,0,0
5941354.0,1.0,0.0,0,0
5194645.0,0.36,0.64,1,1
5115335.0,0.0,1.0,1,1
11707574.0,1.0,0.0,0,0
6691457.0,1.0,0.0,0,0
8760121.0,0.0,1.0,1,1
4949544.0,0.9533333333333334,0.04666666666666667,0,0
7505644.0,0.0,1.0,1,1
9945771.0,0.02,0.98,1,1
12599532.0,0.016666666666666666,0.9833333333333333,1,1
11152786.0,0.006666666666666667,0.9933333333333333,1,1
9396202.0,1.0,0.0,0,0
10156652.0,0.9966666666666667,0.0033333333333333335,0,0
6286278.0,1.0,0.0,0,0
3130391.0,0.0,1.0,1,1
4249808.0,0.03333333333333333,0.9666666666666667,1,1
10782350.0,1.0,0.0,0,0
10394332.0,0.0,1.0,1,1
9717599.0,1.0,0.0,0,0
11395206.0,0.0,1.0,1,1
5871088.0,1.0,0.0,0,0
8278485.0,0.9933333333333333,0.006666666666666667,0,0
10665178.0,0.0,1.0,1,1
10146052.0,1.0,0.0,0,0
10865898.0,1.0,0.0,0,0
5510843.0,0.006666666666666667,0.9933333333333333,1,1
8374021.0,1.0,0.0,0,0
2448958.0,1.0,0.0,0,0
7174058.0,1.0,0.0,0,0
7050319.0,1.0,0.0,0,0
10383222.0,1.0,0.0,0,0
11493331.0,1.0,0.0,0,0
9892651.0,0.006666666666666667,0.9933333333333333,1,1
9019601.0,0.22,0.78,1,1
8681743.0,0.99,0.01,0,0
1429893.0,1.0,0.0,0,0
10684175.0,0.9966666666666667,0.0033333333333333335,0,0
10288161.0,1.0,0.0,0,0
10553852.0,0.08666666666666667,0.9133333333333333,1,1
7445605.0,0.06333333333333334,0.9366666666666666,1,1
5791720.0,0.0,1.0,1,1
10324900.0,1.0,0.0,0,0
3353379.0,1.0,0.0,0,0
10069097.0,0.9933333333333333,0.006666666666666667,0,0
8451881.0,0.14666666666666667,0.8533333333333334,1,1
5290153.0,0.0033333333333333335,0.9966666666666667,1,1
7871438.0,0.0033333333333333335,0.9966666666666667,1,1
4066245.0,0.0033333333333333335,0.9966666666666667,1,1
6425783.0,0.03,0.97,1,1
9279846.0,0.0,1.0,1,1
11758356.0,0.023333333333333334,0.9766666666666667,1,1
5166347.0,1.0,0.0,0,0
9594189.0,0.03666666666666667,0.9633333333333334,1,1
10665572.0,1.0,0.0,0,0
12402748.0,1.0,0.0,0,0
6290811.0,0.05,0.95,1,1
9472251.0,1.0,0.0,0,0
7671841.0,0.0,1.0,1,1
9655507.0,0.9966666666666667,0.0033333333333333335,0,0
5632377.0,1.0,0.0,0,0
8977910.0,0.8933333333333333,0.10666666666666667,0,0
6208799.0,1.0,0.0,0,0
9942746.0,1.0,0.0,0,0
5175503.0,0.03,0.97,1,1
8410368.0,0.0,1.0,1,1
9594843.0,0.006666666666666667,0.9933333333333333,1,1
9838228.0,0.99,0.01,0,0
6122790.0,0.01,0.99,1,1
7698553.0,1.0,0.0,0,0
9011963.0,0.0,1.0,1,1
11461767.0,0.9633333333333334,0.03666666666666667,0,0
11415793.0,0.97,0.03,0,0
4036050.0,0.06666666666666667,0.9333333333333333,0,1
9524680.0,0.0033333333333333335,0.9966666666666667,1,1
3430287.0,0.02,0.98,1,1
9693494.0,1.0,0.0,0,0
7434110.0,0.0,1.0,1,1
11617578.0,0.22,0.78,1,1
7800087.0,0.006666666666666667,0.9933333333333333,1,1
7765762.0,0.88,0.12,1,0
8935942.0,0.02666666666666667,0.9733333333333334,1,1
7033830.0,0.04,0.96,1,1
8610359.0,1.0,0.0,0,0
11445163.0,0.9966666666666667,0.0033333333333333335,0,0
4364717.0,1.0,0.0,0,0
8611876.0,0.0033333333333333335,0.9966666666666667,1,1
