,0,1,label,label_pred
7187096.0,1.0,0.0,0,0
7421353.0,1.0,0.0,0,0
5984358.0,1.0,0.0,0,0
9652406.0,1.0,0.0,0,0
4571307.0,1.0,0.0,0,0
3748172.0,0.0,1.0,1,1
7810798.0,0.05333333333333334,0.9466666666666667,1,1
5808194.0,1.0,0.0,0,0
11572264.0,1.0,0.0,0,0
4137216.0,0.9966666666666667,0.0033333333333333335,0,0
7199240.0,0.43666666666666665,0.5633333333333334,1,1
10320278.0,0.0,1.0,1,1
8410368.0,0.023333333333333334,0.9766666666666667,1,1
6308708.0,0.03,0.97,1,1
5018454.0,1.0,0.0,0,0
7686180.0,1.0,0.0,0,0
11197079.0,0.9966666666666667,0.0033333333333333335,0,0
7976273.0,1.0,0.0,0,0
6450067.0,0.06333333333333334,0.9366666666666666,1,1
4633585.0,1.0,0.0,0,0
11147271.0,0.0,1.0,1,1
8149616.0,0.03333333333333333,0.9666666666666667,1,1
3967523.0,0.0033333333333333335,0.9966666666666667,1,1
10991555.0,0.0033333333333333335,0.9966666666666667,1,1
9666902.0,0.9966666666666667,0.0033333333333333335,0,0
9279846.0,0.0,1.0,1,1
11234085.0,1.0,0.0,0,0
5213362.0,1.0,0.0,0,0
8145063.0,1.0,0.0,0,0
8460866.0,0.04,0.96,1,1
11548779.0,0.9966666666666667,0.0033333333333333335,0,0
5770769.0,0.0033333333333333335,0.9966666666666667,1,1
4904647.0,1.0,0.0,0,0
9279388.0,1.0,0.0,0,0
8937052.0,0.9933333333333333,0.006666666666666667,0,0
11516117.0,1.0,0.0,0,0
9715881.0,0.99,0.01,0,0
7381455.0,0.9866666666666667,0.013333333333333334,0,0
4644300.0,1.0,0.0,0,0
11860602.0,1.0,0.0,0,0
11444615.0,0.006666666666666667,0.9933333333333333,1,1
6794614.0,1.0,0.0,0,0
7595992.0,1.0,0.0,0,0
7871162.0,0.02,0.98,1,1
11446096.0,0.99,0.01,0,0
9775301.0,1.0,0.0,0,0
9898181.0,0.9966666666666667,0.0033333333333333335,0,0
7267381.0,1.0,0.0,0,0
9880519.0,0.9366666666666666,0.06333333333333334,0,0
5083330.0,0.006666666666666667,0.9933333333333333,1,1
2578300.0,1.0,0.0,0,0
7448057.0,0.01,0.99,1,1
11804811.0,0.9966666666666667,0.0033333333333333335,0,0
9347979.0,1.0,0.0,0,0
9268128.0,0.9966666666666667,0.0033333333333333335,0,0
8521906.0,1.0,0.0,0,0
4660038.0,0.08333333333333333,0.9166666666666666,1,1
10272693.0,1.0,0.0,0,0
3634196.0,0.9933333333333333,0.006666666666666667,0,0
8161771.0,1.0,0.0,0,0
5547013.0,1.0,0.0,0,0
6752730.0,0.0033333333333333335,0.9966666666666667,1,1
9011963.0,0.0,1.0,1,1
11087527.0,0.016666666666666666,0.9833333333333333,1,1
11653558.0,1.0,0.0,0,0
11919109.0,1.0,0.0,0,0
9150219.0,1.0,0.0,0,0
8803643.0,0.006666666666666667,0.9933333333333333,1,1
6060473.0,0.9966666666666667,0.0033333333333333335,0,0
7511060.0,0.9966666666666667,0.0033333333333333335,0,0
9450509.0,1.0,0.0,0,0
6425783.0,0.0033333333333333335,0.9966666666666667,1,1
6785604.0,1.0,0.0,0,0
5597401.0,0.0033333333333333335,0.9966666666666667,1,1
5962956.0,0.0,1.0,1,1
3128488.0,0.02666666666666667,0.9733333333333334,1,1
6442045.0,1.0,0.0,0,0
12007544.0,0.0,1.0,1,1
9468966.0,0.006666666666666667,0.9933333333333333,1,1
5860763.0,1.0,0.0,0,0
11910010.0,0.06666666666666667,0.9333333333333333,1,1
6313490.0,0.0,1.0,1,1
9726699.0,0.01,0.99,1,1
3234477.0,1.0,0.0,0,0
3556533.0,0.006666666666666667,0.9933333333333333,1,1
1572802.0,0.056666666666666664,0.9433333333333334,1,1
10004510.0,0.016666666666666666,0.9833333333333333,1,1
8052057.0,1.0,0.0,0,0
6123830.0,1.0,0.0,0,0
2283703.0,0.0,1.0,1,1
10387578.0,0.9966666666666667,0.0033333333333333335,0,0
5791720.0,0.0033333333333333335,0.9966666666666667,1,1
9009876.0,1.0,0.0,0,0
10119326.0,1.0,0.0,0,0
3962433.0,0.01,0.99,1,1
6753253.0,0.0,1.0,1,1
6021786.0,0.0,1.0,1,1
8888573.0,1.0,0.0,0,0
6301329.0,1.0,0.0,0,0
9272100.0,1.0,0.0,0,0
11709039.0,1.0,0.0,0,0
7512333.0,1.0,0.0,0,0
8491221.0,1.0,0.0,0,0
9508744.0,1.0,0.0,0,0
7551695.0,0.006666666666666667,0.9933333333333333,1,1
9217369.0,0.02,0.98,1,1
9654411.0,1.0,0.0,0,0
11520648.0,1.0,0.0,0,0
9101620.0,0.0,1.0,1,1
6606167.0,0.0,1.0,1,1
11961985.0,1.0,0.0,0,0
3541346.0,0.0033333333333333335,0.9966666666666667,1,1
4774574.0,0.006666666666666667,0.9933333333333333,1,1
6462102.0,1.0,0.0,0,0
11299675.0,0.0,1.0,1,1
6774679.0,0.006666666666666667,0.9933333333333333,1,1
8973931.0,0.0,1.0,1,1
8494510.0,0.0,1.0,1,1
8935140.0,0.0,1.0,1,1
2157676.0,1.0,0.0,0,0
11441555.0,1.0,0.0,0,0
10584006.0,1.0,0.0,0,0
12207432.0,0.0,1.0,1,1
11447564.0,0.17333333333333334,0.8266666666666667,1,1
5112508.0,0.13666666666666666,0.8633333333333333,1,1
10081534.0,1.0,0.0,0,0
5095098.0,0.0,1.0,1,1
7416956.0,1.0,0.0,0,0
4756798.0,0.0033333333333333335,0.9966666666666667,1,1
4819423.0,0.0,1.0,1,1
5682476.0,0.0,1.0,1,1
7131728.0,1.0,0.0,0,0
9205855.0,0.02666666666666667,0.9733333333333334,1,1
7033830.0,0.006666666666666667,0.9933333333333333,1,1
9015810.0,1.0,0.0,0,0
11444962.0,1.0,0.0,0,0
8873448.0,0.0033333333333333335,0.9966666666666667,1,1
12835232.0,0.0,1.0,1,1
9085111.0,0.99,0.01,0,0
3219046.0,0.2733333333333333,0.7266666666666667,0,1
9019601.0,0.0033333333333333335,0.9966666666666667,1,1
6122790.0,0.02666666666666667,0.9733333333333334,1,1
8814775.0,0.0033333333333333335,0.9966666666666667,1,1
6438389.0,1.0,0.0,0,0
11395206.0,0.016666666666666666,0.9833333333333333,1,1
11133900.0,0.006666666666666667,0.9933333333333333,1,1
8432209.0,1.0,0.0,0,0
12365759.0,1.0,0.0,0,0
11350350.0,0.0,1.0,1,1
8105352.0,1.0,0.0,0,0
6766663.0,0.95,0.05,0,0
8257134.0,0.013333333333333334,0.9866666666666667,1,1
5956051.0,0.013333333333333334,0.9866666666666667,1,1
3732192.0,1.0,0.0,0,0
10011038.0,0.9866666666666667,0.013333333333333334,0,0
7049035.0,0.0,1.0,1,1
9941632.0,1.0,0.0,0,0
10553017.0,0.11,0.89,1,1
8801228.0,0.02,0.98,1,1
9077192.0,0.01,0.99,1,1
5427445.0,0.0033333333333333335,0.9966666666666667,1,1
10062987.0,0.01,0.99,1,1
11031746.0,0.006666666666666667,0.9933333333333333,1,1
6233860.0,1.0,0.0,0,0
10019281.0,1.0,0.0,0,0
6117832.0,0.0,1.0,1,1
4543084.0,1.0,0.0,0,0
