,0,1,label,label_pred
4907159.0,0.0,1.0,1,1
8196449.0,0.023333333333333334,0.9766666666666667,1,1
9351448.0,1.0,0.0,0,0
5694225.0,1.0,0.0,0,0
10658197.0,1.0,0.0,0,0
10790812.0,0.0,1.0,1,1
4638279.0,1.0,0.0,0,0
9011963.0,0.0,1.0,1,1
9714399.0,1.0,0.0,0,0
6522011.0,1.0,0.0,0,0
10187494.0,1.0,0.0,0,0
10395972.0,1.0,0.0,0,0
3657215.0,1.0,0.0,0,0
9837234.0,0.9933333333333333,0.006666666666666667,0,0
7765762.0,0.8933333333333333,0.10666666666666667,1,0
4386313.0,1.0,0.0,0,0
6423857.0,0.0,1.0,1,1
5290153.0,0.0033333333333333335,0.9966666666666667,1,1
4663999.0,1.0,0.0,0,0
8012943.0,0.08333333333333333,0.9166666666666666,1,1
7740465.0,1.0,0.0,0,0
5460828.0,0.0,1.0,1,1
7680651.0,1.0,0.0,0,0
8373723.0,0.99,0.01,0,0
12453624.0,0.13666666666666666,0.8633333333333333,0,1
8005800.0,1.0,0.0,0,0
8278323.0,0.013333333333333334,0.9866666666666667,1,1
9696911.0,0.06,0.94,1,1
5967315.0,1.0,0.0,0,0
5360129.0,0.006666666666666667,0.9933333333333333,1,1
9353824.0,1.0,0.0,0,0
7014579.0,1.0,0.0,0,0
4383380.0,1.0,0.0,0,0
10710753.0,0.0,1.0,1,1
9606116.0,0.06,0.94,1,1
12509131.0,1.0,0.0,0,0
7671841.0,0.0,1.0,1,1
8671601.0,1.0,0.0,0,0
3128488.0,0.043333333333333335,0.9566666666666667,1,1
11459973.0,1.0,0.0,0,0
5607145.0,0.0,1.0,1,1
10459864.0,0.0,1.0,1,1
5802784.0,0.043333333333333335,0.9566666666666667,1,1
3735720.0,0.25,0.75,1,1
9761113.0,0.0033333333333333335,0.9966666666666667,1,1
11395206.0,0.0033333333333333335,0.9966666666666667,1,1
7822143.0,1.0,0.0,0,0
3527979.0,1.0,0.0,0,0
10991774.0,0.9966666666666667,0.0033333333333333335,0,0
4271063.0,0.0,1.0,1,1
7199240.0,0.21,0.79,1,1
4265815.0,0.9966666666666667,0.0033333333333333335,0,0
9655122.0,0.99,0.01,0,0
12265967.0,1.0,0.0,0,0
9655799.0,0.0,1.0,1,1
4758472.0,0.9933333333333333,0.006666666666666667,0,0
3540728.0,0.006666666666666667,0.9933333333333333,1,1
5427445.0,0.0,1.0,1,1
4660838.0,1.0,0.0,0,0
8915398.0,1.0,0.0,0,0
5779615.0,0.11333333333333333,0.8866666666666667,1,1
7435098.0,1.0,0.0,0,0
9178425.0,0.04,0.96,1,1
6852279.0,1.0,0.0,0,0
9552352.0,0.9933333333333333,0.006666666666666667,0,0
8973931.0,0.0,1.0,1,1
4454890.0,0.0,1.0,1,1
10065745.0,0.03,0.97,1,1
10712311.0,1.0,0.0,0,0
10653560.0,0.13,0.87,1,1
7871438.0,0.0,1.0,1,1
5095098.0,0.01,0.99,1,1
5547482.0,0.9933333333333333,0.006666666666666667,0,0
7612670.0,1.0,0.0,0,0
7049035.0,0.006666666666666667,0.9933333333333333,1,1
9595147.0,0.99,0.01,0,0
7592990.0,0.056666666666666664,0.9433333333333334,1,1
10263691.0,0.0033333333333333335,0.9966666666666667,1,1
10920297.0,1.0,0.0,0,0
10033242.0,1.0,0.0,0,0
12885258.0,0.9966666666666667,0.0033333333333333335,0,0
11547824.0,1.0,0.0,0,0
8145637.0,1.0,0.0,0,0
11603250.0,0.9966666666666667,0.0033333333333333335,0,0
2283703.0,0.01,0.99,1,1
2014087.0,1.0,0.0,0,0
2996903.0,0.02,0.98,1,1
9715709.0,0.016666666666666666,0.9833333333333333,1,1
7957881.0,0.06333333333333334,0.9366666666666666,1,1
3957755.0,0.0033333333333333335,0.9966666666666667,1,1
11304045.0,1.0,0.0,0,0
5703216.0,1.0,0.0,0,0
11124203.0,0.0033333333333333335,0.9966666666666667,1,1
5937046.0,1.0,0.0,0,0
11047115.0,0.07,0.93,0,1
11665620.0,0.06333333333333334,0.9366666666666666,1,1
8044516.0,0.0,1.0,1,1
3424763.0,1.0,0.0,0,0
4586745.0,1.0,0.0,0,0
3858086.0,0.0,1.0,1,1
10017047.0,1.0,0.0,0,0
8688142.0,1.0,0.0,0,0
6366224.0,1.0,0.0,0,0
8496845.0,1.0,0.0,0,0
8935140.0,0.0,1.0,1,1
4857336.0,0.9933333333333333,0.006666666666666667,0,0
2832741.0,1.0,0.0,0,0
5780123.0,1.0,0.0,0,0
5791720.0,0.01,0.99,1,1
8329492.0,1.0,0.0,0,0
6425783.0,0.05333333333333334,0.9466666666666667,1,1
6923590.0,1.0,0.0,0,0
8302467.0,0.09,0.91,1,1
6464396.0,1.0,0.0,0,0
9716316.0,1.0,0.0,0,0
10665178.0,0.0,1.0,1,1
3556533.0,0.0,1.0,1,1
12207432.0,0.0,1.0,1,1
6425928.0,0.06,0.94,1,1
10818065.0,0.0,1.0,1,1
5962956.0,0.01,0.99,1,1
8771098.0,0.9966666666666667,0.0033333333333333335,0,0
10920804.0,1.0,0.0,0,0
10991555.0,0.0033333333333333335,0.9966666666666667,1,1
4818089.0,0.9933333333333333,0.006666666666666667,0,0
9531806.0,0.99,0.01,0,0
3953970.0,0.04,0.96,1,1
8410368.0,0.0,1.0,1,1
3097331.0,0.0,1.0,1,1
11391903.0,1.0,0.0,0,0
6842741.0,1.0,0.0,0,0
10004510.0,0.0,1.0,1,1
8257134.0,0.023333333333333334,0.9766666666666667,1,1
5597401.0,0.01,0.99,1,1
11568939.0,1.0,0.0,0,0
5460947.0,1.0,0.0,0,0
6762923.0,0.03666666666666667,0.9633333333333334,1,1
7748764.0,1.0,0.0,0,0
11903742.0,0.09,0.91,0,1
5682476.0,0.0,1.0,1,1
7267780.0,1.0,0.0,0,0
11135883.0,1.0,0.0,0,0
10553017.0,0.07666666666666666,0.9233333333333333,1,1
4736554.0,1.0,0.0,0,0
9593769.0,0.9966666666666667,0.0033333333333333335,0,0
9479539.0,0.006666666666666667,0.9933333333333333,1,1
3838948.0,1.0,0.0,0,0
12166457.0,0.0,1.0,1,1
9992083.0,0.056666666666666664,0.9433333333333334,1,1
10156958.0,1.0,0.0,0,0
6044049.0,0.99,0.01,0,0
8355841.0,1.0,0.0,0,0
7810798.0,0.016666666666666666,0.9833333333333333,1,1
7416956.0,1.0,0.0,0,0
8521887.0,1.0,0.0,0,0
3102715.0,0.9966666666666667,0.0033333333333333335,0,0
10256619.0,1.0,0.0,0,0
12204988.0,1.0,0.0,0,0
11655984.0,0.9933333333333333,0.006666666666666667,0,0
5807464.0,1.0,0.0,0,0
4935181.0,0.016666666666666666,0.9833333333333333,1,1
6450067.0,0.03,0.97,1,1
1027016.0,0.06666666666666667,0.9333333333333333,1,1
7551695.0,0.05,0.95,1,1
12835232.0,0.0033333333333333335,0.9966666666666667,1,1
9182941.0,0.0033333333333333335,0.9966666666666667,1,1
7036755.0,0.02,0.98,1,1
