,0,1,label,label_pred
5779615.0,0.27,0.73,1,1
4351414.0,0.05333333333333334,0.9466666666666667,1,1
11515196.0,1.0,0.0,0,0
2708787.0,0.9933333333333333,0.006666666666666667,0,0
4447913.0,1.0,0.0,0,0
9955562.0,1.0,0.0,0,0
6757959.0,1.0,0.0,0,0
10972980.0,1.0,0.0,0,0
7598783.0,1.0,0.0,0,0
11617578.0,0.29,0.71,1,1
11407915.0,0.9933333333333333,0.006666666666666667,0,0
10602265.0,1.0,0.0,0,0
12600817.0,1.0,0.0,0,0
5732812.0,0.9966666666666667,0.0033333333333333335,0,0
6878696.0,1.0,0.0,0,0
5360129.0,0.0033333333333333335,0.9966666666666667,1,1
8873448.0,0.006666666666666667,0.9933333333333333,1,1
7519257.0,0.9866666666666667,0.013333333333333334,0,0
11911515.0,1.0,0.0,0,0
8257779.0,0.006666666666666667,0.9933333333333333,1,1
9837504.0,1.0,0.0,0,0
7259996.0,1.0,0.0,0,0
8265665.0,1.0,0.0,0,0
9011963.0,0.0,1.0,1,1
4935181.0,0.07333333333333333,0.9266666666666666,1,1
6446128.0,1.0,0.0,0,0
6871390.0,0.0,1.0,1,1
10295202.0,1.0,0.0,0,0
5083330.0,0.0033333333333333335,0.9966666666666667,1,1
9101620.0,0.0,1.0,1,1
3556533.0,0.0,1.0,1,1
4660255.0,0.0,1.0,1,1
7448057.0,0.006666666666666667,0.9933333333333333,1,1
5476288.0,1.0,0.0,0,0
8057997.0,1.0,0.0,0,0
4660038.0,0.03333333333333333,0.9666666666666667,1,1
3857945.0,1.0,0.0,0,0
11133900.0,0.023333333333333334,0.9766666666666667,1,1
11393799.0,1.0,0.0,0,0
11193342.0,1.0,0.0,0,0
8481420.0,0.05,0.95,1,1
6675516.0,0.9833333333333333,0.016666666666666666,0,0
7427283.0,1.0,0.0,0,0
7592990.0,0.06333333333333334,0.9366666666666666,1,1
10268893.0,1.0,0.0,0,0
11665620.0,0.023333333333333334,0.9766666666666667,1,1
6362397.0,1.0,0.0,0,0
7505644.0,0.016666666666666666,0.9833333333333333,1,1
8256040.0,0.87,0.13,0,0
9471429.0,0.99,0.01,0,0
4732733.0,1.0,0.0,0,0
3743562.0,1.0,0.0,0,0
9657635.0,1.0,0.0,0,0
12120764.0,1.0,0.0,0,0
7047750.0,1.0,0.0,0,0
4275542.0,1.0,0.0,0,0
9892651.0,0.0,1.0,1,1
12599532.0,0.0,1.0,1,1
5879323.0,1.0,0.0,0,0
8673557.0,1.0,0.0,0,0
9178425.0,0.02666666666666667,0.9733333333333334,1,1
9479539.0,0.0,1.0,1,1
8410368.0,0.0,1.0,1,1
11824451.0,1.0,0.0,0,0
7023070.0,1.0,0.0,0,0
11046989.0,1.0,0.0,0,0
3646034.0,0.0033333333333333335,0.9966666666666667,1,1
10156958.0,1.0,0.0,0,0
4846813.0,1.0,0.0,0,0
9279846.0,0.01,0.99,1,1
10004510.0,0.0,1.0,1,1
11459691.0,1.0,0.0,0,0
11753667.0,0.0033333333333333335,0.9966666666666667,1,1
9018449.0,0.03,0.97,0,1
8149616.0,0.04666666666666667,0.9533333333333334,1,1
5450651.0,1.0,0.0,0,0
12644136.0,0.016666666666666666,0.9833333333333333,1,1
9591765.0,0.0,1.0,1,1
1719166.0,1.0,0.0,0,0
4546642.0,1.0,0.0,0,0
8494510.0,0.013333333333333334,0.9866666666666667,1,1
4842829.0,0.87,0.13,0,0
2984308.0,0.9833333333333333,0.016666666666666666,0,0
10056042.0,1.0,0.0,0,0
4948655.0,1.0,0.0,0,0
11031746.0,0.006666666666666667,0.9933333333333333,1,1
9019435.0,0.06666666666666667,0.9333333333333333,1,1
5962956.0,0.0,1.0,1,1
9992083.0,0.06333333333333334,0.9366666666666666,1,1
10469807.0,1.0,0.0,0,0
3530387.0,0.02,0.98,1,1
8482804.0,1.0,0.0,0,0
12207432.0,0.0,1.0,1,1
8607877.0,1.0,0.0,0,0
4953211.0,0.016666666666666666,0.9833333333333333,1,1
7190935.0,0.18333333333333332,0.8166666666666667,0,1
9278686.0,1.0,0.0,0,0
8314902.0,0.0,1.0,1,1
9292640.0,1.0,0.0,0,0
3852116.0,0.0,1.0,1,1
4175707.0,0.04666666666666667,0.9533333333333334,1,1
9141761.0,0.9333333333333333,0.06666666666666667,0,0
8613520.0,1.0,0.0,0,0
6863987.0,0.0,1.0,1,1
5220528.0,0.006666666666666667,0.9933333333333333,1,1
9575042.0,0.99,0.01,0,0
7742097.0,0.0,1.0,1,1
4819423.0,0.0,1.0,1,1
7036755.0,0.06,0.94,1,1
9462702.0,1.0,0.0,0,0
5097379.0,0.0,1.0,1,1
8012943.0,0.07666666666666666,0.9233333333333333,1,1
6390122.0,1.0,0.0,0,0
5427445.0,0.0,1.0,1,1
9897652.0,1.0,0.0,0,0
5389826.0,1.0,0.0,0,0
10384891.0,0.013333333333333334,0.9866666666666667,1,1
5965747.0,1.0,0.0,0,0
8737965.0,1.0,0.0,0,0
8545657.0,1.0,0.0,0,0
6061042.0,0.9533333333333334,0.04666666666666667,0,0
10065745.0,0.0033333333333333335,0.9966666666666667,1,1
4454890.0,0.0,1.0,1,1
5530734.0,1.0,0.0,0,0
5770769.0,0.0,1.0,1,1
6675318.0,0.0,1.0,1,1
10459864.0,0.0,1.0,1,1
4356597.0,1.0,0.0,0,0
8153942.0,1.0,0.0,0,0
11395206.0,0.006666666666666667,0.9933333333333333,1,1
9591845.0,1.0,0.0,0,0
4756798.0,0.0,1.0,1,1
10776847.0,1.0,0.0,0,0
12115586.0,1.0,0.0,0,0
9655308.0,1.0,0.0,0,0
11857892.0,1.0,0.0,0,0
5597406.0,0.02,0.98,1,1
6964067.0,0.9833333333333333,0.016666666666666666,0,0
9897922.0,1.0,0.0,0,0
8441089.0,1.0,0.0,0,0
10587237.0,0.0,1.0,1,1
8963543.0,1.0,0.0,0,0
5112508.0,0.02666666666666667,0.9733333333333334,1,1
3097645.0,1.0,0.0,0,0
8397068.0,1.0,0.0,0,0
9933464.0,0.0033333333333333335,0.9966666666666667,1,1
12254110.0,0.02,0.98,1,1
8428178.0,1.0,0.0,0,0
11393217.0,0.0,1.0,1,1
7207056.0,1.0,0.0,0,0
9182941.0,0.0033333333333333335,0.9966666666666667,1,1
8300056.0,1.0,0.0,0,0
8451881.0,0.2733333333333333,0.7266666666666667,1,1
11558671.0,1.0,0.0,0,0
5095098.0,0.0,1.0,1,1
7033830.0,0.01,0.99,1,1
11242428.0,1.0,0.0,0,0
6343818.0,0.043333333333333335,0.9566666666666667,1,1
9582872.0,1.0,0.0,0,0
10263691.0,0.02666666666666667,0.9733333333333334,1,1
3859126.0,0.9966666666666667,0.0033333333333333335,0,0
10622511.0,1.0,0.0,0,0
11598752.0,1.0,0.0,0,0
8776565.0,0.0,1.0,1,1
7958890.0,0.15333333333333332,0.8466666666666667,1,1
10737179.0,1.0,0.0,0,0
7014502.0,1.0,0.0,0,0
