,0,1,label,label_pred
8482565.0,0.023333333333333334,0.9766666666666667,1,1
3130391.0,0.006666666666666667,0.9933333333333333,1,1
6633200.0,0.9966666666666667,0.0033333333333333335,0,0
4274622.0,0.94,0.06,0,0
5943889.0,0.36333333333333334,0.6366666666666667,1,1
3967523.0,0.04666666666666667,0.9533333333333334,1,1
4457443.0,1.0,0.0,0,0
8378945.0,0.01,0.99,1,1
7367141.0,0.9933333333333333,0.006666666666666667,0,0
6675318.0,0.013333333333333334,0.9866666666666667,1,1
7432054.0,1.0,0.0,0,0
9637002.0,1.0,0.0,0,0
3646734.0,0.9833333333333333,0.016666666666666666,0,0
10710753.0,0.0,1.0,1,1
6529378.0,0.19333333333333333,0.8066666666666666,1,1
7551695.0,0.24666666666666667,0.7533333333333333,1,1
6124132.0,0.9966666666666667,0.0033333333333333335,0,0
6343818.0,0.18666666666666668,0.8133333333333334,1,1
7022598.0,1.0,0.0,0,0
4907701.0,1.0,0.0,0,0
9898639.0,1.0,0.0,0,0
7935694.0,1.0,0.0,0,0
7449695.0,0.02666666666666667,0.9733333333333334,1,1
8057997.0,1.0,0.0,0,0
7018267.0,1.0,0.0,0,0
4937270.0,0.9766666666666667,0.023333333333333334,0,0
8609611.0,1.0,0.0,0,0
4351414.0,0.21,0.79,1,1
8935140.0,0.013333333333333334,0.9866666666666667,1,1
3556533.0,0.0,1.0,1,1
7777570.0,0.9966666666666667,0.0033333333333333335,0,0
5597401.0,0.023333333333333334,0.9766666666666667,1,1
2696381.0,0.9933333333333333,0.006666666666666667,0,0
6199740.0,1.0,0.0,0,0
8096062.0,0.99,0.01,0,0
11922000.0,0.9933333333333333,0.006666666666666667,0,0
10394332.0,0.02,0.98,1,1
2568708.0,0.9966666666666667,0.0033333333333333335,0,0
4935181.0,0.04,0.96,1,1
11348043.0,1.0,0.0,0,0
8760121.0,0.0,1.0,1,1
5991378.0,1.0,0.0,0,0
8673358.0,0.006666666666666667,0.9933333333333333,1,1
7810798.0,0.04,0.96,1,1
8580320.0,0.06,0.94,0,1
5350970.0,1.0,0.0,0,0
8652639.0,1.0,0.0,0,0
8153731.0,1.0,0.0,0,0
4851349.0,1.0,0.0,0,0
1572802.0,0.043333333333333335,0.9566666666666667,1,1
7448057.0,0.0033333333333333335,0.9966666666666667,1,1
9216124.0,1.0,0.0,0,0
9899284.0,0.9966666666666667,0.0033333333333333335,0,0
10553017.0,0.07333333333333333,0.9266666666666666,1,1
4946028.0,0.9933333333333333,0.006666666666666667,0,0
9409485.0,0.9533333333333334,0.04666666666666667,0,0
11124523.0,1.0,0.0,0,0
5008368.0,0.99,0.01,0,0
9455694.0,1.0,0.0,0,0
6032448.0,0.01,0.99,1,1
8044516.0,0.02666666666666667,0.9733333333333334,1,1
1027016.0,0.23,0.77,1,1
4447852.0,1.0,0.0,0,0
5022778.0,1.0,0.0,0,0
11244150.0,0.6233333333333333,0.37666666666666665,0,0
9992083.0,0.016666666666666666,0.9833333333333333,1,1
4351212.0,0.9733333333333334,0.02666666666666667,0,0
12305849.0,0.5433333333333333,0.45666666666666667,0,0
11514607.0,1.0,0.0,0,0
10916665.0,1.0,0.0,0,0
10262567.0,1.0,0.0,0,0
6117832.0,0.006666666666666667,0.9933333333333333,1,1
11446824.0,0.9966666666666667,0.0033333333333333335,0,0
6115494.0,1.0,0.0,0,0
3426852.0,0.9966666666666667,0.0033333333333333335,0,0
9166044.0,0.6533333333333333,0.3466666666666667,0,0
10914307.0,0.9733333333333334,0.02666666666666667,0,0
4249808.0,0.05,0.95,1,1
10966326.0,1.0,0.0,0,0
8736607.0,1.0,0.0,0,0
5685114.0,1.0,0.0,0,0
10904619.0,1.0,0.0,0,0
4248433.0,0.06,0.94,1,1
4819423.0,0.0,1.0,1,1
8058211.0,0.016666666666666666,0.9833333333333333,1,1
6762923.0,0.07333333333333333,0.9266666666666666,1,1
9532642.0,0.9966666666666667,0.0033333333333333335,0,0
11303983.0,1.0,0.0,0,0
11804811.0,0.9933333333333333,0.006666666666666667,0,0
7501966.0,1.0,0.0,0,0
6104631.0,0.006666666666666667,0.9933333333333333,1,1
12207432.0,0.006666666666666667,0.9933333333333333,1,1
5510843.0,0.0,1.0,1,1
8935942.0,0.10333333333333333,0.8966666666666666,1,1
8018901.0,1.0,0.0,0,0
10532566.0,1.0,0.0,0,0
3646034.0,0.006666666666666667,0.9933333333333333,1,1
9279846.0,0.03,0.97,1,1
11243149.0,0.08,0.92,1,1
3530387.0,0.016666666666666666,0.9833333333333333,1,1
11087527.0,0.0033333333333333335,0.9966666666666667,1,1
6291729.0,1.0,0.0,0,0
11873590.0,1.0,0.0,0,0
10686865.0,1.0,0.0,0,0
8916493.0,1.0,0.0,0,0
12404396.0,0.9966666666666667,0.0033333333333333335,0,0
11152786.0,0.016666666666666666,0.9833333333333333,1,1
7509897.0,1.0,0.0,0,0
8546792.0,0.023333333333333334,0.9766666666666667,1,1
3529497.0,0.0,1.0,1,1
9411171.0,0.9966666666666667,0.0033333333333333335,0,0
10454962.0,0.056666666666666664,0.9433333333333334,1,1
5870568.0,1.0,0.0,0,0
11904699.0,1.0,0.0,0,0
11521137.0,0.04666666666666667,0.9533333333333334,1,1
8314902.0,0.013333333333333334,0.9866666666666667,1,1
12368017.0,0.9933333333333333,0.006666666666666667,0,0
10515986.0,0.013333333333333334,0.9866666666666667,1,1
11124203.0,0.006666666666666667,0.9933333333333333,1,1
8159877.0,1.0,0.0,0,0
11234085.0,1.0,0.0,0,0
8388857.0,0.9933333333333333,0.006666666666666667,0,0
8776565.0,0.01,0.99,1,1
8176536.0,1.0,0.0,0,0
9472557.0,0.9933333333333333,0.006666666666666667,0,0
10482690.0,1.0,0.0,0,0
12470793.0,1.0,0.0,0,0
9897830.0,0.9933333333333333,0.006666666666666667,0,0
12166457.0,0.03666666666666667,0.9633333333333334,1,1
9139564.0,1.0,0.0,0,0
7368999.0,0.0,1.0,1,1
5806861.0,1.0,0.0,0,0
7502608.0,1.0,0.0,0,0
9673747.0,1.0,0.0,0,0
6114020.0,1.0,0.0,0,0
7678396.0,1.0,0.0,0,0
10653560.0,0.2,0.8,1,1
9048440.0,1.0,0.0,0,0
6689146.0,1.0,0.0,0,0
5689996.0,0.0,1.0,1,1
7381180.0,0.016666666666666666,0.9833333333333333,1,1
2986883.0,1.0,0.0,0,0
11031746.0,0.016666666666666666,0.9833333333333333,1,1
11091336.0,0.006666666666666667,0.9933333333333333,1,1
4953358.0,0.016666666666666666,0.9833333333333333,1,1
4907159.0,0.02,0.98,1,1
9715709.0,0.06333333333333334,0.9366666666666666,1,1
6290811.0,0.2,0.8,1,1
10414809.0,1.0,0.0,0,0
7031565.0,0.28,0.72,1,1
9077192.0,0.0033333333333333335,0.9966666666666667,1,1
7293557.0,1.0,0.0,0,0
8888573.0,1.0,0.0,0,0
9243084.0,1.0,0.0,0,0
4275867.0,1.0,0.0,0,0
6430289.0,1.0,0.0,0,0
5341893.0,0.9866666666666667,0.013333333333333334,0,0
7049035.0,0.03,0.97,1,1
11713701.0,0.016666666666666666,0.9833333333333333,1,1
5167192.0,0.9866666666666667,0.013333333333333334,0,0
5457537.0,1.0,0.0,0,0
5126248.0,1.0,0.0,0,0
10933281.0,1.0,0.0,0,0
4917619.0,1.0,0.0,0,0
7107762.0,0.0033333333333333335,0.9966666666666667,1,1
8867486.0,0.9966666666666667,0.0033333333333333335,0,0
8761464.0,0.9966666666666667,0.0033333333333333335,0,0
